{
"Title": "Woman Discovers “Effective Altruism” Means Her Pussy Belongs to the Tribe",
"ThumbnailURI": "/wp-content/uploads/2023/02/Screenshot-2023-02-04-at-12.24.09-PM.png",
"Description": "",
"Author": "Elvis Dunderhoff",
"Link": "/woman-discovers-effective-altruism-means-her-pussy-belongs-to-the-tribe/"
}