{
"Title": "Tranny Freakshow Mascot of the Anal Occupation of Donbass Claims Its Hand was Blown Off",
"ThumbnailURI": "/wp-content/uploads/2023/02/Screenshot-2023-02-24-at-3.39.28-AM.png",
"Description": "",
"Author": "Andrew Anglin",
"Link": "/tranny-freakshow-mascot-of-the-anal-occupation-of-donbass-claims-its-hand-was-blown-off/"
}