{
"Title": "Chicago: Lincoln Statue Vandalized to Demand “Colonizer” White People Give “Land Back”",
"ThumbnailURI": "/wp-content/uploads/2022/11/chicago-lincoln-colonizer-3.webp",
"Description": "",
"Author": "Elvis Dunderhoff",
"Link": "/chicago-lincoln-statue-vandalized-to-demand-colonizer-white-people-give-land-back/"
}