{
"Title": "Canada: School Board Orders Teachers to Hide Kids’ Trannification from Parents",
"ThumbnailURI": "/wp-content/uploads/2022/11/Screen-Shot-2022-11-07-at-11.11.31-AM.png",
"Description": "",
"Author": "Snake Baker",
"Link": "/canada-school-board-orders-teacher-to-hide-kids-trannification-from-parents/"
}