{
"Title": "Net and Yoohoo Says Jews Can Do Whatever They Want, Not Bound by “Despicable” UN Vote",
"ThumbnailURI": "/wp-content/uploads/2023/01/jew-3.jpg",
"Description": "",
"Author": "Elvis Dunderhoff",
"Link": "/net-and-yahoo-says-jews-can-do-whatever-they-want-not-bound-by-despicable-un-vote/"
}