{
"Title": "Males Should be Called “Sperm-Producing” and Females “Egg-Producing,” Researchers Say",
"ThumbnailURI": "/wp-content/uploads/2022/12/meme-tranny-7.jpg",
"Description": "",
"Author": "Elvis Dunderhoff",
"Link": "/males-should-be-called-sperm-producing-and-females-egg-producing-researchers-say/"
}