{
"Title": "Penguin Random House Decides to Publish Roald Dahl Books After All",
"ThumbnailURI": "/wp-content/uploads/2023/02/Screenshot-2023-02-25-at-6.29.32-AM.png",
"Description": "",
"Author": "Andrew Anglin",
"Link": "/penguin-random-house-decides-to-publish-roald-dahl-books-after-all/"
}