{
"Title": "Oregon School System Tells Teachers to Keep Kids’ “Gender Identity” a Secret from Parents",
"ThumbnailURI": "/wp-content/uploads/2023/01/Screenshot-2023-01-08-at-8.11.14-AM.png",
"Description": "",
"Author": "Andrew Anglin",
"Link": "/oregon-school-system-tells-teachers-to-keep-kids-gender-identity-a-secret-from-parents/"
}