{
"Title": "Hundreds of Israeli Spies Working for Big Tech in America",
"ThumbnailURI": "/wp-content/uploads/2022/11/BigO10-448020342-e1669285216668.jpg",
"Description": "",
"Author": "Snake Baker",
"Link": "/hundreds-of-israeli-spies-working-for-big-tech-in-america/"
}