{
"Title": "Popular YouTuber Makes “Why Kanye West is Right” Video – Commenters Concur",
"ThumbnailURI": "/wp-content/uploads/2022/10/Screen-Shot-2022-10-27-at-3.51.10-AM.png",
"Description": "",
"Author": "Andrew Anglin",
"Link": "/popular-youtuber-makes-why-kanye-west-is-right-video-commenters-concur/"
}