{
"Title": "UK: Luxury Fashion House Does Ad with Woman Who Chopped Her Tits Off",
"ThumbnailURI": "/wp-content/uploads/2022/11/anime-laugh-drink-2.jpg",
"Description": "",
"Author": "Snake Baker",
"Link": "/uk-luxury-fashion-house-does-ad-with-woman-who-chopped-her-tits-off/"
}