{
"Title": "Middle East Earthquake: 22,000 Confirmed Dead So Far",
"ThumbnailURI": "/wp-content/uploads/2023/02/Screenshot-2023-02-10-at-4.16.06-AM.png",
"Description": "",
"Author": "Andrew Anglin",
"Link": "/middle-east-earthquake-22000-confirmed-dead-so-far/"
}