{
"Title": "Russia to Ban Foreigners from Renting Wombs to Prevent Adoption by Same-Sex Couples",
"ThumbnailURI": "/wp-content/uploads/2022/11/Screen-Shot-2022-11-28-at-4.08.09-AM.png",
"Description": "",
"Author": "Elvis Dunderhoff",
"Link": "/russia-to-ban-foreigners-from-renting-wombs-to-prevent-adoption-by-same-sex-couples/"
}