{
"Title": "Head of House Foreign Affairs Committee (GOP) Says America Likely to Fight China Over Taiwan by 2025",
"ThumbnailURI": "/wp-content/uploads/2023/01/rick-morty-5.jpeg",
"Description": "",
"Author": "Elvis Dunderhoff",
"Link": "/head-of-house-foreign-affairs-committee-gop-says-america-likely-to-fight-china-over-taiwan-by-2025/"
}