{
"Title": "After 12 Votes, McCarthy is Still Losing",
"ThumbnailURI": "/wp-content/uploads/2023/01/Screenshot-2023-01-06-at-4.19.14-AM.png",
"Description": "",
"Author": "Andrew Anglin",
"Link": "/after-11-votes-mccarthy-still-stuck-at-200-continues-to-refuse-to-negotiate-or-surrender/"
}