{
"Title": "Jerusalem: Jews Declare Yet Another War on Christians, Attack, Vandalize Churches",
"ThumbnailURI": "/wp-content/uploads/2023/01/jew-3.jpg",
"Description": "",
"Author": "Andrew Anglin",
"Link": "/jerusalem-jews-declare-yet-another-war-on-christians-attack-vandalize-churches/"
}