{
"Title": "Great News: Nimrata Randhawa is Running for President!",
"ThumbnailURI": "/wp-content/uploads/2023/02/Screenshot-2023-02-14-at-3.13.45-PM.png",
"Description": "",
"Author": "Andrew Anglin",
"Link": "/great-news-nimrata-randhawa-is-running-for-president/"
}