{
"Title": "Climate Guru Greta Thunberg Sues Sweden for Disobeying Her Orders",
"ThumbnailURI": "/wp-content/uploads/2022/11/Screen-Shot-2022-11-26-at-5.28.22-AM.png",
"Description": "",
"Author": "Elvis Dunderhoff",
"Link": "/climate-guru-greta-thunberg-sues-sweden-for-disobeying-her-orders/"
}