{
"Title": "Women Who Say They’re Men to be Allowed to Show Bare Breasts on Instagram",
"ThumbnailURI": "/wp-content/uploads/2023/01/meme-tranny-chad-1.jpg",
"Description": "",
"Author": "Elvis Dunderhoff",
"Link": "/women-who-say-theyre-men-to-be-allowed-to-show-bare-breasts-on-instagram/"
}