{
"Title": "McCarthy Elected on 15th Vote, Gaetz Says He Got Everything He Wanted",
"ThumbnailURI": "/wp-content/uploads/2023/01/Screenshot-2023-01-07-at-4.13.50-AM.png",
"Description": "",
"Author": "Andrew Anglin",
"Link": "/mccarthy-elected-after-gaetz-says-he-got-everything-he-wanted/"
}