{
"Title": "Italy Blocks NGO Ships from Dropping Invaders in Its Ports",
"ThumbnailURI": "/wp-content/uploads/2022/11/Screen-Shot-2022-11-08-at-1.49.44-AM.png",
"Description": "",
"Author": "Snake Baker",
"Link": "/italy-blocks-ngo-ships-from-dropping-invaders-in-its-ports/"
}