{
"Title": "Germany: Climatards Glue Themselves to Dinosaur Display to Change the Weather",
"ThumbnailURI": "/wp-content/uploads/2022/11/Screen-Shot-2022-11-01-at-7.46.07-AM.png",
"Description": "",
"Author": "Snake Baker",
"Link": "/germany-climatards-glue-themselves-to-dinosaur-display-to-change-the-weather/"
}