{
"Title": "Brandon Lashes Out Against Musk!",
"ThumbnailURI": "/wp-content/uploads/2022/11/Screen-Shot-2022-11-05-at-7.47.31-AM.png",
"Description": "",
"Author": "Andrew Anglin",
"Link": "/brandon-lashes-out-against-musk/"
}