{
"Title": "EU Announces Ability to Steal Russian Central Bank Assets",
"ThumbnailURI": "/wp-content/uploads/2023/01/meme-eu-european-union-ball-2-1.jpg",
"Description": "",
"Author": "Elvis Dunderhoff",
"Link": "/eu-announces-ability-to-steal-russian-central-bank-assets/"
}