{
"Title": "Zelensky Tells People in the Ukraine to Get Used to Living Without Electricity",
"ThumbnailURI": "/wp-content/uploads/2022/12/zelensky-48.jpg",
"Description": "",
"Author": "Elvis Dunderhoff",
"Link": "/zelensky-tells-people-in-the-ukraine-to-get-used-to-living-without-electricity/"
}