{
"Title": "First Annual Children’s Emmy Awards Show was Mostly About Faggotry",
"ThumbnailURI": "/wp-content/uploads/2017/07/Disney-Gay.jpg",
"Description": "",
"Author": "Snake Baker",
"Link": "/first-annual-childrens-emmy-awards-show-was-mostly-about-faggotry/"
}