{
"Title": "Chinese Sheep Walking in a Perfect Circle for Days",
"ThumbnailURI": "/wp-content/uploads/2022/11/chinas-circling-sheep-925.webp",
"Description": "",
"Author": "Andrew Anglin",
"Link": "/chinese-sheep-walking-in-a-perfect-circle-for-days/"
}