{
"Title": "We Should Consider Blocking Out the Sun to Stop Global Warming, Latest UN Science Says",
"ThumbnailURI": "/wp-content/uploads/2022/11/Screen-Shot-2022-11-11-at-2.41.19-AM.png",
"Description": "",
"Author": "Elvis Dunderhoff",
"Link": "/we-should-consider-blocking-out-the-sun-to-stop-global-warming-latest-un-science-says/"
}