{
"Title": "Tranny CEO of Beauty Company, Other Genetic Defects Demand Change to Dictionary Definition of Beauty",
"ThumbnailURI": "/wp-content/uploads/2023/02/h4ha2ksi674uu4qs364uzyag6p3yvmnj_hq-2128260578-e1675249502293.jpg",
"Description": "",
"Author": "Snake Baker",
"Link": "/tranny-ceo-of-beauty-company-other-genetic-defects-demand-change-to-dictionary-definition-of-beauty/"
}