{
"Title": "Twitter: Number of Active Users in “Absolute Decline” Since Pandemic Censorship Began",
"ThumbnailURI": "/wp-content/uploads/2022/10/horror-17-1.jpg",
"Description": "",
"Author": "",
"Link": "/twitter-number-of-active-users-in-absolute-decline-since-pandemic-censorship-began/"
}