{
"Title": "AI-Written Seinfeld Parody Banned from Twitch for Saying Trannies are Mentally Ill",
"ThumbnailURI": "/wp-content/uploads/2023/02/2717-e1675846445548.webp",
"Description": "",
"Author": "Snake Baker",
"Link": "/ai-written-seinfeld-parody-banned-from-twitch-for-saying-trannies-are-mentally-ill/"
}