{
"Title": "Zelensky Says Hohols Now “Psychologically Ready” to Conquer Crimea",
"ThumbnailURI": "/wp-content/uploads/2022/12/zelensky-59.jpg",
"Description": "",
"Author": "Elvis Dunderhoff",
"Link": "/zelensky-says-hohols-now-psychologically-ready-to-conquer-crimea/"
}