{
"Title": "Sadistic Alleged Cannibal Mike Pompeo Attacks Trump Over “Victim” Statement",
"ThumbnailURI": "/wp-content/uploads/2022/11/jabba-thumb.png",
"Description": "",
"Author": "Andrew Anglin",
"Link": "/sadistic-alleged-cannibal-mike-pompeo-attacks-trump-over-victim-statement/"
}