{
"Title": "Trump Alleges Arizona Voter Fraud as Masters Refuses to Concede!",
"ThumbnailURI": "/wp-content/uploads/2022/11/Screen-Shot-2022-11-12-at-9.18.31-PM.png",
"Description": "",
"Author": "Andrew Anglin",
"Link": "/trump-alleges-arizona-voter-fraud-as-masters-refuses-to-concede/"
}