{
"Title": "UK Vows to Teach the Ukraine Pilots to Fly NATO Jets",
"ThumbnailURI": "/wp-content/uploads/2023/02/zelensky-398-1.jpg",
"Description": "",
"Author": "Elvis Dunderhoff",
"Link": "/uk-vows-to-teach-the-ukraine-pilots-to-fly-nato-jets/"
}