{
"Title": "14 Whistleblowers Expose Extent of FBI Anti-Conservative Corruption in New Report",
"ThumbnailURI": "/wp-content/uploads/2022/11/meme-biden-sniff-1.jpg",
"Description": "",
"Author": "Elvis Dunderhoff",
"Link": "/14-whistleblowers-expose-extent-of-fbi-anti-conservative-corruption-in-new-report/"
}