{
"Title": "Kiev: People Prepare for Worst Winter of Their Lives, With No Electricity, No Water, No Way to Cook",
"ThumbnailURI": "/wp-content/uploads/2022/11/snowman-2.jpg",
"Description": "",
"Author": "Elvis Dunderhoff",
"Link": "/kiev-people-prepare-for-worst-winter-of-their-lives-with-no-electricity-no-water-no-way-to-cook/"
}