{
"Title": "Brandon is Threatening People Who Don’t Believe His Fake Election Next Week",
"ThumbnailURI": "/wp-content/uploads/2022/11/Screen-Shot-2022-11-03-at-12.43.09-PM.png",
"Description": "",
"Author": "Andrew Anglin",
"Link": "/brandon-is-threatening-people-who-dont-believe-his-fake-election-next-week/"
}