{
"Title": "Subversive Jew Media Liar Barbara “Walters” Waremwasser Finally Dead",
"ThumbnailURI": "/wp-content/uploads/2022/12/Screen-Shot-2022-12-31-at-5.29.51-AM.png",
"Description": "",
"Author": "Andrew Anglin",
"Link": "/subversive-jew-media-liar-barbara-walters-waremwasser-finally-dead/"
}