{
"Title": "CIA Joins Jurassic Park Agenda to Resurrect Extinct Species",
"ThumbnailURI": "/wp-content/uploads/2023/02/Screenshot-2023-02-02-at-4.15.49-AM.png",
"Description": "",
"Author": "Elvis Dunderhoff",
"Link": "/cia-joins-jurassic-park-agenda-to-resurrect-extinct-species/"
}