{
"Title": "Colleges are Requiring Students to Get Updated Calamari Clot Shots",
"ThumbnailURI": "/wp-content/uploads/2022/12/cthulhu-1.jpg",
"Description": "",
"Author": "Elvis Dunderhoff",
"Link": "/colleges-are-requiring-students-to-get-updated-calamari-clot-shots/"
}