{
"Title": "Palestine: Jew Settlers Riot After Palestinian Attack",
"ThumbnailURI": "/wp-content/uploads/2022/06/meme-ukraine-billions-israel-jewish-1-1.png",
"Description": "",
"Author": "Snake Baker",
"Link": "/palestine-jew-settlers-riot-after-palestinian-attack/"
}