{
"Title": "Vladimir Putin’s New Year’s Address (With English Subtitles)",
"ThumbnailURI": "/wp-content/uploads/2023/01/Screen-Shot-2022-12-31-at-7.07.04-PM.png",
"Description": "",
"Author": "Andrew Anglin",
"Link": "/vladimir-putins-new-years-address-with-english-subtitles/"
}