{
"Title": "Soul Brotha Says Weimar Republic was the “Greatest Democracy” Ever",
"ThumbnailURI": "/wp-content/uploads/2022/11/Screen-Shot-2022-11-05-at-10.57.13-PM.png",
"Description": "",
"Author": "Andrew Anglin",
"Link": "/soul-brotha-says-weimar-republic-was-the-greatest-democracy-ever/"
}