{
"Title": "Spain: “Refugee” Uses Machete to Attack Clergymen at Churches, Kills One, Injures Several",
"ThumbnailURI": "/wp-content/uploads/2023/01/orc-10.jpg",
"Description": "",
"Author": "Elvis Dunderhoff",
"Link": "/spain-refugee-uses-machete-to-attack-clergymen-at-churches-kills-one-injures-several/"
}