{
"Title": "Israeli Doctors Stand with Trannykind Against Evil Net and Yoohoo’s Anti-Tranny Allies",
"ThumbnailURI": "/wp-content/uploads/2022/11/meme-jew-fights-jew-1.jpg",
"Description": "",
"Author": "Elvis Dunderhoff",
"Link": "/israeli-doctors-stand-with-trannykind-against-evil-net-and-yoohoos-anti-tranny-allies/"
}