{
"Title": "It’s Gonna Be Wild If a Republican Wins New York Governorship",
"ThumbnailURI": "/wp-content/uploads/2022/11/Screen-Shot-2022-11-07-at-3.59.05-AM.png",
"Description": "",
"Author": "Andrew Anglin",
"Link": "/its-gonna-be-wild-if-a-republican-wins-new-york-governorship/"
}