{
"Title": "FDA Declares Lab-Grown Meat Safe for Human Consumption",
"ThumbnailURI": "/wp-content/uploads/2022/11/th-1515912722-e1669111492708.jpg",
"Description": "",
"Author": "Snake Baker",
"Link": "/fda-declares-lab-grown-meat-safe-for-human-consumption/"
}