{
"Title": "Brandon Calls for Elon Musk to be Probed as a Threat to National Security",
"ThumbnailURI": "/wp-content/uploads/2022/11/Screen-Shot-2022-11-10-at-2.41.14-AM.png",
"Description": "",
"Author": "Andrew Anglin",
"Link": "/brandon-calls-for-elon-musk-to-be-probed-as-a-threat-to-national-security/"
}