{
"Title": "D.C. Schools Survey 11-Year-Olds About Their “Gender Identity” and “Transgender Status”",
"ThumbnailURI": "/wp-content/uploads/2022/10/Mieruko-Chan-manga-banner-e1604906061313-1200x675-785419574.jpg",
"Description": "",
"Author": "Snake Baker",
"Link": "/d-c-schools-survey-11-year-olds-about-their-gender-identity-and-transgender-status/"
}