{
"Title": "Black DC City Employee Arrested for Shooting 13-Year-Old Black Criminal",
"ThumbnailURI": "/wp-content/uploads/2021/07/Anime-Dragon-Ball-5-e1626523370674.jpg",
"Description": "",
"Author": "Snake Baker",
"Link": "/black-dc-city-employee-arrested-for-shooting-13-year-old-black-criminal/"
}