{
"Title": "Brandon Lashes Out Against the Irish, Falsely Claims to be Italian",
"ThumbnailURI": "/wp-content/uploads/2022/12/Screen-Shot-2022-12-18-at-5.47.10-AM.png",
"Description": "",
"Author": "Andrew Anglin",
"Link": "/brandon-lashes-out-against-the-irish-falsely-claims-to-be-italian/"
}