{
"Title": "France: Thousands Protest Ukraine War, Demand NATO Exit",
"ThumbnailURI": "/wp-content/uploads/2023/01/meme-ukraine-supporter-3.png",
"Description": "",
"Author": "Andrew Anglin",
"Link": "/france-thousands-protest-ukraine-war-demand-nato-exit/"
}