{
"Title": "AP Claims Celebrities are Busting Antisemitism Taboo",
"ThumbnailURI": "/wp-content/uploads/2022/12/ye-netanyahu.png",
"Description": "",
"Author": "Elvis Dunderhoff",
"Link": "/ap-claims-celebrities-are-busting-antisemitism-taboo/"
}