{
"Title": "Canada: Founder of  “Queer” Injun Artists’ Collective Turns Out to be White Woman",
"ThumbnailURI": "/wp-content/uploads/2023/01/th-2934118362-e1672911033626.jpg",
"Description": "",
"Author": "Snake Baker",
"Link": "/canada-founder-of-queer-injun-artists-collective-turns-out-to-be-white-woman/"
}