{
"Title": "Polish PM Says They’ll Send Tanks to Hoholistan Even If Germany Disagrees",
"ThumbnailURI": "/wp-content/uploads/2023/01/poland-1.jpg",
"Description": "",
"Author": "Elvis Dunderhoff",
"Link": "/polish-pm-says-theyll-send-tanks-to-hoholistan-even-if-germany-disagrees/"
}