{
"Title": "UK Refuses to Give Much-Needed Steroids to Poor Male Souls Trapped in Female Bodies",
"ThumbnailURI": "/wp-content/uploads/2022/12/meme-tranny-3.jpg",
"Description": "",
"Author": "Elvis Dunderhoff",
"Link": "/uk-refuses-to-give-much-needed-steroids-to-poor-male-souls-trapped-in-female-bodies/"
}