{
"Title": "Girl Guides of Canada Rename “Brownies” to “Embers” to Defeat White Supremacy",
"ThumbnailURI": "/wp-content/uploads/2023/01/Screenshot-2023-01-16-at-5.36.33-AM.png",
"Description": "",
"Author": "Snake Baker",
"Link": "/girl-guides-of-canada-rename-brownies-to-embers-to-defeat-white-supremacy/"
}