{
"Title": "Jews Give Kyrie Six Demands to Meet Before They Will Give Him His Career Back",
"ThumbnailURI": "/wp-content/uploads/2022/11/Screen-Shot-2022-11-08-at-4.11.25-AM.png",
"Description": "",
"Author": "Andrew Anglin",
"Link": "/jews-give-kyrie-six-demands-to-meet-before-they-will-give-him-his-career-back/"
}