{
"Title": "UK: Poll Shows 70% of Kids Aged 7-12 Terrified of Cow Farts Changing the Weather",
"ThumbnailURI": "/wp-content/uploads/2022/11/greta-thunberg-caricature_orig-1774069157-e1669635970792.jpg",
"Description": "",
"Author": "Snake Baker",
"Link": "/uk-poll-shows-70-of-kids-aged-7-12-terrified-of-cow-farts-changing-the-weather/"
}