{
"Title": "Watch: University of Michigan Students Call for Murder of All Jews, “There is Only One Solution”",
"ThumbnailURI": "/wp-content/uploads/2023/01/Screenshot-2023-01-15-at-12.41.02-PM.png",
"Description": "",
"Author": "Elvis Dunderhoff",
"Link": "/watch-university-of-michigan-students-call-for-murder-of-all-jews-there-is-only-one-solution/"
}