{
"Title": "Trannies Attack Feminists at Rally Opposing Child Mutilation in Tacoma",
"ThumbnailURI": "/wp-content/uploads/2022/11/raw-1955757495-e1667458750248.gif",
"Description": "",
"Author": "Snake Baker",
"Link": "/trannies-attack-feminists-at-rally-opposing-child-mutilation-in-tacoma/"
}