{
"Title": "Croatia’s President Refuses to be “American Slave,” Says NATO is Doing a Proxy War, Sanctions are Nonsense",
"ThumbnailURI": "/wp-content/uploads/2023/01/america-evil-1-1.jpg",
"Description": "",
"Author": "Elvis Dunderhoff",
"Link": "/croatias-president-refuses-to-be-american-slave-says-nato-is-doing-a-proxy-war-sanctions-are-nonsense/"
}