{
"Title": "US Ignores Russian Ambassador Saying Ukraine Planning to Do False Flag Nuke Attack",
"ThumbnailURI": "/wp-content/uploads/2022/11/Screen-Shot-2022-11-09-at-5.31.09-AM.png",
"Description": "",
"Author": "Andrew Anglin",
"Link": "/us-ignores-russian-ambassador-saying-ukraine-planning-to-do-false-flag-nuke-attack/"
}