{
"Title": "Brazil: “Woman of the Year” Award Goes to Man Who Says There’s No Such Thing as Women",
"ThumbnailURI": "/wp-content/uploads/2022/10/Deeply_36959f_6037314-3458389381-e1666951771675.jpg",
"Description": "",
"Author": "Snake Baker",
"Link": "/brazil-woman-of-the-year-award-goes-to-man-who-says-theres-no-such-thing-as-women/"
}