{
"Title": "UK Enters “Lengthy Recession”",
"ThumbnailURI": "/wp-content/uploads/2022/11/Screen-Shot-2022-11-11-at-7.22.46-AM.png",
"Description": "",
"Author": "Elvis Dunderhoff",
"Link": "/uk-enters-lengthy-recession/"
}