{
"Title": "New Zealand: Parents Who Refused Vaxie Blood for Baby’s Surgery Lose Custody in Court",
"ThumbnailURI": "/wp-content/uploads/2022/12/latest-3479590518-e1670434375438.png",
"Description": "",
"Author": "Snake Baker",
"Link": "/new-zealand-parents-who-refused-vaxed-blood-for-babys-surgery-lose-custody-in-court/"
}