{
"Title": "Germany: Top Politician Demands Someone Stop Fat, Ugly Woman Attempting to Provoke WWIII",
"ThumbnailURI": "/wp-content/uploads/2023/02/Screenshot-2023-02-23-at-4.07.37-AM.png",
"Description": "",
"Author": "Andrew Anglin",
"Link": "/germany-top-politician-demands-someone-stop-fat-ugly-woman-attempting-to-provoke-wwiii/"
}