{
"Title": "More High Schools Removing Honors Classes Because Blacks and Mexicans are Dumb",
"ThumbnailURI": "/wp-content/uploads/2023/03/Screenshot-2023-03-02-at-6.48.47-AM.png",
"Description": "",
"Author": "Snake Baker",
"Link": "/more-high-schools-removing-honors-classes-because-blacks-and-mexicans-are-dumb/"
}