{
"Title": "Climate Reparations: Cows Farting in America Make Poor Somalians Suffer, So You Must Pay Up",
"ThumbnailURI": "/wp-content/uploads/2022/11/simpsons-cow-1.jpg",
"Description": "",
"Author": "Elvis Dunderhoff",
"Link": "/climate-reparations-cows-farting-in-america-make-poor-somalians-suffer-so-you-must-pay-up/"
}