{
"Title": "Nancy Condemns Elon as Evil for Questioning Her Husband’s Gay Hammer Romance",
"ThumbnailURI": "/wp-content/uploads/2022/11/Screen-Shot-2022-11-08-at-3.09.34-AM.png",
"Description": "",
"Author": "Andrew Anglin",
"Link": "/nancy-condemns-elon-as-evil-for-questioning-her-husbands-gay-hammer-romance/"
}