{
"Title": "Elon Announces $8/mo for a Blue Check",
"ThumbnailURI": "/wp-content/uploads/2022/11/twitter-blue-check.png",
"Description": "",
"Author": "Andrew Anglin",
"Link": "/elon-announces-8-mo-for-a-blue-check/"
}