{
"Title": "Meta to Pay $725 Million Settlement Over Cambridge Analytica Data",
"ThumbnailURI": "/wp-content/uploads/2022/01/zuckerberg-ayy-lmao-1-1.jpeg",
"Description": "",
"Author": "Elvis Dunderhoff",
"Link": "/meta-to-pay-725-million-settlement-over-cambridge-analytica-data/"
}