{
"Title": "Australia: Entire Basketball Team Refuses to Wear Anal Symbol on Their Jerseys",
"ThumbnailURI": "/wp-content/uploads/2023/01/latest-3334157529-e1675079045124.png",
"Description": "",
"Author": "Snake Baker",
"Link": "/australia-entire-basketball-team-refuses-to-wear-anal-symbol-on-their-jerseys/"
}