{
"Title": "Japan’s Declining Population and Global Sinoization",
"ThumbnailURI": "/wp-content/uploads/2023/01/meme-japan-women-1-1.jpg",
"Description": "",
"Author": "Andrew Anglin",
"Link": "/japans-declining-population-and-global-sinoization/"
}