{
"Title": "Twitter Files 2.0: Elon Musk Reveals Twitter Shadowbanned Political Candidates During Elections",
"ThumbnailURI": "/wp-content/uploads/2022/12/meme-npc-twitter-1.jpg",
"Description": "",
"Author": "Elvis Dunderhoff",
"Link": "/twitter-files-2-0-elon-musk-reveals-twitter-shadowbanned-political-candidates-during-elections/"
}