{
"Title": "Medical University of South Carolina Forced by State to Cease Child Mutilation",
"ThumbnailURI": "/wp-content/uploads/2022/12/e80fa89b5ed43fb19c03fa6a871db73f12a7f222_hq-823907859-e1671459374357.jpg",
"Description": "",
"Author": "Snake Baker",
"Link": "/medical-university-of-south-carolina-forced-by-state-to-cease-child-mutilation/"
}