{
"Title": "California: Ferrari Splits in Half in High Speed Crash",
"ThumbnailURI": "/wp-content/uploads/2022/12/newspress-collage-25054140-1671339844025.webp",
"Description": "",
"Author": "Andrew Anglin",
"Link": "/california-ferrari-splits-in-half-in-high-speed-crash/"
}