{
"Title": "Medvedev Warns West That Aiding the Ukraine Could Lead to Nuclear Apocalypse",
"ThumbnailURI": "/wp-content/uploads/2023/02/fallout-4.webp",
"Description": "",
"Author": "Elvis Dunderhoff",
"Link": "/medvedev-warns-west-aiding-the-ukraine-could-lead-to-nuclear-apocalypse/"
}