{
"Title": "California: Racist Cops Arrest Innocent Black for Running Over and Stabbing Privileged White Male",
"ThumbnailURI": "/wp-content/uploads/2023/02/66765ce24ec84a3d4e9a72a5a75a673c-3825202063-e1675940098299.jpg",
"Description": "",
"Author": "Snake Baker",
"Link": "/california-racist-cops-arrest-innocent-black-for-running-over-and-stabbing-privileged-white-male/"
}