{
"Title": "Russia Increases Gas Supplies to China as Europeans Suffer from Self-Inflicted Energy Crisis",
"ThumbnailURI": "/wp-content/uploads/2022/12/china-bear-6.jpg",
"Description": "",
"Author": "Elvis Dunderhoff",
"Link": "/russia-increases-gas-supplies-to-china-as-europeans-suffer-from-self-inflicted-energy-crisis/"
}