{
"Title": "UK: Streetshitter Prime Minister Signs Deal to Import More Streetshitters Into Britain",
"ThumbnailURI": "/wp-content/uploads/2022/11/maxresdefault-2836159057-e1668679701129.jpg",
"Description": "",
"Author": "Snake Baker",
"Link": "/uk-streetshitter-prime-minister-signs-deal-to-import-more-streetshitters-into-britain/"
}