{
"Title": "Top Asian Hottie Defends Nick Fuentes",
"ThumbnailURI": "/wp-content/uploads/2022/12/Screen-Shot-2022-12-02-at-4.45.54-PM.png",
"Description": "",
"Author": "Andrew Anglin",
"Link": "/top-asian-hottie-defends-nick-fuentes/"
}