{
"Title": "US Jews Admit They Pulled Out of Afghanistan to Secure Resources for War with Russia",
"ThumbnailURI": "/wp-content/uploads/2022/12/Screen-Shot-2022-12-23-at-6.58.09-AM.png",
"Description": "",
"Author": "Andrew Anglin",
"Link": "/us-jews-admit-they-pulled-out-of-afghanistan-to-secure-resources-for-war-with-russia/"
}