{
"Title": "Russia to Stop Selling Metals to West",
"ThumbnailURI": "/wp-content/uploads/2022/12/russia-bear-2.jpeg",
"Description": "",
"Author": "Elvis Dunderhoff",
"Link": "/russia-to-stop-selling-metals-to-west/"
}