{
"Title": "Trump Once Again Refuses to Denounce Nick Fuentes",
"ThumbnailURI": "/wp-content/uploads/2022/11/Screen-Shot-2022-11-27-at-6.36.26-AM.png",
"Description": "",
"Author": "Andrew Anglin",
"Link": "/trump-once-again-refuses-to-denounce-nick-fuentes/"
}