{
"Title": "SHOCK: Man Who Threatened to Attack NYC Synagogue is Jewish",
"ThumbnailURI": "/wp-content/uploads/2022/03/meme-jew-merchant-shapeshifting-1-1.jpg",
"Description": "",
"Author": "Elvis Dunderhoff",
"Link": "/shock-man-who-threatened-to-attack-nyc-synagogue-is-jewish/"
}