{
"Title": "UK: Prosecutors Try to Criminalize Quoting Parts of the Bible, Fail for Now",
"ThumbnailURI": "/wp-content/uploads/2022/11/bdb91cb5b9b83e86bc6e9155fec87d3793f99563_hq-3615848316.jpg",
"Description": "",
"Author": "Snake Baker",
"Link": "/uk-prosecutors-try-to-criminalize-quoting-parts-of-the-bible-fail-for-now/"
}