{
"Title": "Canada: Cops Arrest Teen for Attending School After Being Suspended for Anti-Tranny Views",
"ThumbnailURI": "/wp-content/uploads/2022/12/meme-tranny-7.jpg",
"Description": "",
"Author": "Elvis Dunderhoff",
"Link": "/canada-cops-arrest-teen-for-attending-school-after-being-suspended-for-anti-tranny-views/"
}