{
"Title": "Zelensky Says Russia is Winning, Situation at Frontlines Getting Tougher",
"ThumbnailURI": "/wp-content/uploads/2023/02/zelensky-365-1.jpg",
"Description": "",
"Author": "Elvis Dunderhoff",
"Link": "/zelensky-says-russia-is-winning-situation-at-frontlines-getting-tougher/"
}