{
"Title": "Jimmy Kimmel Shows Funny Nick Fuentes Clip, Highlight How Unfunny Jimmy Kimmel Is",
"ThumbnailURI": "/wp-content/uploads/2022/11/Screen-Shot-2022-11-29-at-8.22.05-AM.png",
"Description": "",
"Author": "Andrew Anglin",
"Link": "/578892-2/"
}