{
"Title": "Poland Vows to Continue Demanding Germans Pay $1.37 Trillion in Reparations for World War 2",
"ThumbnailURI": "/wp-content/uploads/2022/09/poland-merchant-1-1.jpg",
"Description": "",
"Author": "Elvis Dunderhoff",
"Link": "/poland-vows-to-keep-asking-germans-to-pay-1-37-trillion-in-reparations-for-world-war-2/"
}