{
"Title": "California: School District Makes Anti-White and Trannification Classes Mandatory for All Students",
"ThumbnailURI": "/wp-content/uploads/2023/02/hqdefault-1145435684-e1676028525227.jpg",
"Description": "",
"Author": "Snake Baker",
"Link": "/california-school-district-makes-anti-white-and-trannification-classes-mandatory-for-all-students/"
}