{
"Title": "Rat-Faced Jew Zelensky Says He’s Getting Ready to Attack Crimea",
"ThumbnailURI": "/wp-content/uploads/2023/02/Screenshot-2023-02-25-at-6.43.29-AM.png",
"Description": "",
"Author": "Andrew Anglin",
"Link": "/rat-faced-jew-zelensky-says-hes-getting-ready-to-attack-crimea/"
}