{
"Title": "Spain: Government “Revives” Small Villages by Moving Rapefugees Into Them",
"ThumbnailURI": "/wp-content/uploads/2022/12/Screen-Shot-2022-12-13-at-5.41.50-AM.png",
"Description": "",
"Author": "Snake Baker",
"Link": "/spain-government-revives-small-villages-by-moving-rapefugees-in-them/"
}