{
"Title": "Memetic Monday: The Long Road to Total Aryan Victory",
"ThumbnailURI": "/wp-content/uploads/2023/01/Screenshot-2023-01-16-at-10.50.41-AM.png",
"Description": "",
"Author": "Andrew Anglin",
"Link": "/memetic-monday-the-long-road-to-total-aryan-victory/"
}