{
"Title": "Breitbart is Still Calling Ye an “Anti-Semite”",
"ThumbnailURI": "/wp-content/uploads/2022/10/Screen-Shot-2022-10-30-at-6.26.29-AM.png",
"Description": "",
"Author": "Andrew Anglin",
"Link": "/breitbart-is-still-calling-ye-an-anti-semite/"
}