{
"Title": "Best Korea Announces Goal of Having World’s Strongest Nuclear Force",
"ThumbnailURI": "/wp-content/uploads/2022/11/kim-jong-un-30.jpg",
"Description": "",
"Author": "Elvis Dunderhoff",
"Link": "/best-korea-announces-goal-of-having-worlds-strongest-nuclear-force/"
}