{
"Title": "The Entire Ohio River May be Poisoned for Generations and the Media is Talking About Balloons",
"ThumbnailURI": "/wp-content/uploads/2023/02/2023_Ohio_train_derailment.jpg",
"Description": "",
"Author": "Andrew Anglin",
"Link": "/the-entire-ohio-river-may-be-poisoned-for-generations-and-the-media-is-talking-about-objects/"
}