{
"Title": "European Space Agency Selects First Cripple Astronaut",
"ThumbnailURI": "/wp-content/uploads/2022/11/Screen-Shot-2022-11-25-at-5.19.09-AM.png",
"Description": "",
"Author": "Snake Baker",
"Link": "/european-space-agency-selects-first-cripple-astronaut/"
}