{
"Title": "Ohio Chernobyl: Chemical Fallout May Have Reached New York – Residents Report Strange Odor",
"ThumbnailURI": "/wp-content/uploads/2023/02/doom-shock-2.webp",
"Description": "",
"Author": "Andrew Anglin",
"Link": "/ohio-chernobyl-chemical-fallout-may-have-reached-new-york-residents-report-strange-odor/"
}