{
"Title": "Minnesota: Senate Passes Bill Allowing Abortion Until Birth",
"ThumbnailURI": "/wp-content/uploads/2023/02/e3cb1b7809a076fc5188cd6c3a605233-2980017701-e1675615435816.jpg",
"Description": "",
"Author": "Snake Baker",
"Link": "/minnesota-senate-passes-bill-allowing-abortion-until-birth/"
}