{
"Title": "Elon Says Journalists No Longer Allowed to Dox People on Twitter",
"ThumbnailURI": "/wp-content/uploads/2022/12/Screen-Shot-2022-12-17-at-3.22.34-AM.png",
"Description": "",
"Author": "Andrew Anglin",
"Link": "/elon-says-journalists-no-longer-allowed-to-dox-people-on-twitter/"
}