{
"Title": "Jeff Bezos Announces He’s Going to Use Most of His Net Worth to Fight Weather",
"ThumbnailURI": "/wp-content/uploads/2022/11/jeff-bezos-1.jpg",
"Description": "",
"Author": "Elvis Dunderhoff",
"Link": "/jeff-bezos-announces-hes-going-to-use-most-of-his-net-worth-to-fight-weather/"
}