{
"Title": "Gorshilla Mindset: Cernovich Leads Shill Revolution for Ron DeSantis",
"ThumbnailURI": "/wp-content/uploads/2022/11/Screen-Shot-2022-11-09-at-6.59.48-AM.png",
"Description": "",
"Author": "Andrew Anglin",
"Link": "/cernovich-leads-shill-revolution-for-ron-desantis/"
}