{
"Title": "After Backlash, Jews Back Down and Forgive Kyrie",
"ThumbnailURI": "/wp-content/uploads/2022/11/Screen-Shot-2022-11-11-at-3.44.56-AM.png",
"Description": "",
"Author": "Andrew Anglin",
"Link": "/after-backlash-jews-back-down-and-forgive-kyrie/"
}