{
"Title": "Supporters of Hunter Biden to Create Legal Defense Fund",
"ThumbnailURI": "/wp-content/uploads/2023/01/hunter-biden-3.webp",
"Description": "",
"Author": "Elvis Dunderhoff",
"Link": "/supporters-of-hunter-biden-to-create-legal-defense-fund/"
}