{
"Title": "UK: Evil Trolls Cancel Baby Drag Queen Cabaret Show",
"ThumbnailURI": "/wp-content/uploads/2023/03/meme-wojak-drag-tranny-1.webp",
"Description": "",
"Author": "Elvis Dunderhoff",
"Link": "/uk-evil-trolls-cancel-baby-drag-queen-cabaret-show/"
}