{
"Title": "Nick Fuentes v. Alex Jones Debate:",
"ThumbnailURI": "/wp-content/uploads/2022/12/alex-jones-thumb.png",
"Description": "",
"Author": "Andrew Anglin",
"Link": "/nick-fuentes-v-alex-jones-debate/"
}