{
"Title": "World’s Ugliest Actress Celebrates Binding Her Chest",
"ThumbnailURI": "/wp-content/uploads/2023/02/Screen-Shot-2017-11-02-at-07.02-e1676544279222.png",
"Description": "",
"Author": "Snake Baker",
"Link": "/worlds-ugliest-actress-celebrates-binding-her-chest/"
}