{
"Title": "Gaelic Football Now Allows Trannies to Play on Women’s Teams!",
"ThumbnailURI": "/wp-content/uploads/2023/01/meme-tranny-chad-1.jpg",
"Description": "",
"Author": "Snake Baker",
"Link": "/gaelic-football-now-allows-trannies-to-play-on-womens-teams/"
}