{
"Title": "Russian Spy Chief Confirms He Believes Truss’ “It’s Done” Text was About Bombing the Nord Stream",
"ThumbnailURI": "/wp-content/uploads/2022/11/Screen-Shot-2022-11-06-at-12.50.37-PM.png",
"Description": "",
"Author": "Andrew Anglin",
"Link": "/russian-spy-chief-confirms-he-believes-truss-its-done-text-was-about-bombing-the-nord-stream/"
}