{
"Title": "Madonna Looks Perfectly Normal to Me",
"ThumbnailURI": "/wp-content/uploads/2023/02/Screenshot-2023-02-06-at-12.25.19-AM.png",
"Description": "",
"Author": "Andrew Anglin",
"Link": "/madonna-looks-perfectly-normal-to-me/"
}