{
"Title": "Great Satan Greenlights Proposed Sale of $619M Worth of Military Supplies to Taiwan",
"ThumbnailURI": "/wp-content/uploads/2023/03/Screenshot-2023-03-03-at-7.41.21-AM.png",
"Description": "",
"Author": "Elvis Dunderhoff",
"Link": "/great-satan-greenlights-proposed-sale-of-619m-worth-of-military-supplies-to-taiwan/"
}