{
"Title": "The Netherlands: Government Planning to Expropriate and Shut Down Thousands of Farms",
"ThumbnailURI": "/wp-content/uploads/2022/11/dcvbmcq-dd49848a-b59d-403f-94dd-6efdb56538d8-3502158272.png",
"Description": "",
"Author": "Snake Baker",
"Link": "/the-netherlands-government-planning-to-expropriate-and-shut-down-thousands-of-farms/"
}