{
"Title": "Poll Shows Iowa Supporting DeSantis",
"ThumbnailURI": "/wp-content/uploads/2022/11/Screen-Shot-2022-11-22-at-2.18.45-PM.png",
"Description": "",
"Author": "Andrew Anglin",
"Link": "/poll-shows-iowa-supporting-desantis/"
}