{
"Title": "Nuland Says “Fringe” Republicans and Democrats are “Starting to Question” Support for the Ukraine",
"ThumbnailURI": "/wp-content/uploads/2023/02/nuland-ukraine-1-1.webp",
"Description": "",
"Author": "Elvis Dunderhoff",
"Link": "/nuland-says-fringe-republicans-and-democrats-are-starting-to-question-support-for-the-ukraine/"
}