{
"Title": "US Says Executing POWs is Not a Big Deal",
"ThumbnailURI": "/wp-content/uploads/2022/11/Screen-Shot-2022-11-22-at-7.14.24-AM.png",
"Description": "",
"Author": "Andrew Anglin",
"Link": "/us-says-executing-pows-is-not-a-big-deal/"
}