{
"Title": "Ohio: Neo-Nazi Parents Sue School District for Trannifying Kids, Talking About Anal",
"ThumbnailURI": "/wp-content/uploads/2020/04/Anime-Riot.jpg",
"Description": "",
"Author": "Snake Baker",
"Link": "/ohio-neo-nazi-parents-sue-school-district-for-trannifying-kids-talking-about-anal/"
}