{
"Title": "Ye’s Sunday Sermon – Jesus Says “Love Everyone”",
"ThumbnailURI": "/wp-content/uploads/2022/12/Screen-Shot-2022-12-12-at-12.29.13-PM.png",
"Description": "",
"Author": "Andrew Anglin",
"Link": "/yes-sunday-sermon-jesus-says-love-everyone/"
}