{
"Title": "Once and Future King Blames Mitch the Lich for Midterm Debacle",
"ThumbnailURI": "/wp-content/uploads/2022/11/Screen-Shot-2022-11-14-at-5.01.52-AM.png",
"Description": "",
"Author": "Andrew Anglin",
"Link": "/once-and-future-king-blames-mitch-the-lich-for-midterm-debacle/"
}