{
"Title": "Last Week, Republican Presidential Hopefuls Gathered in Vegas to Kikesuck",
"ThumbnailURI": "/wp-content/uploads/2022/11/jew-11.jpg",
"Description": "",
"Author": "Andrew Anglin",
"Link": "/last-week-republican-presidential-hopefuls-gathered-in-vegas-to-kikesuck/"
}