{
"Title": "Breitbart Claims Trump Disavowed Nick Fuentes – Actual Quote Doesn’t Even Say That",
"ThumbnailURI": "/wp-content/uploads/2022/12/Screen-Shot-2022-12-17-at-4.14.20-AM.png",
"Description": "",
"Author": "Andrew Anglin",
"Link": "/breitbart-claims-trump-disavowed-nick-fuentes-actual-quote-doesnt-even-say-that/"
}