{
"Title": "So, About This Fuentes Guy…",
"ThumbnailURI": "/wp-content/uploads/2022/11/Screen-Shot-2022-11-26-at-6.56.12-AM.png",
"Description": "",
"Author": "Andrew Anglin",
"Link": "/so-about-this-fuentes-guy/"
}