{
"Title": "Sam Bankman-Fried Arrested in the Bahamas on US Charges",
"ThumbnailURI": "/wp-content/uploads/2022/12/FjN7oeIXEAAXVQ4.jpeg",
"Description": "",
"Author": "Andrew Anglin",
"Link": "/sam-bankman-fried-arrested-in-the-bahamas-on-us-charges/"
}