{
"Title": "Elon Fires Back at Jew Greenblatt! Tells Him to Stop the Defamation!",
"ThumbnailURI": "/wp-content/uploads/2022/11/Screen-Shot-2022-11-21-at-10.37.50-AM-1.png",
"Description": "",
"Author": "Andrew Anglin",
"Link": "/elon-fires-back-at-jew-greenblatt-tells-him-to-stop-the-defamation/"
}