{
"Title": "Israel Now Sending American Munitions to Hoholistan as Hohols Struggle with Aiming Practice",
"ThumbnailURI": "/wp-content/uploads/2023/01/meme-russia-ukraine-1-1.jpg",
"Description": "",
"Author": "Elvis Dunderhoff",
"Link": "/israel-now-sending-american-munitions-to-hoholistan-as-hohols-struggle-with-aiming-practice/"
}