{
"Title": "US Allegedly Sending Auditors to the Ukraine",
"ThumbnailURI": "/wp-content/uploads/2023/02/Screenshot-2023-02-18-at-6.49.30-AM.png",
"Description": "",
"Author": "Andrew Anglin",
"Link": "/588516-2/"
}