{
"Title": "Persecuted Anti-Feticide Activist Mark Houck Acquitted on Both Charges",
"ThumbnailURI": "/wp-content/uploads/2023/01/latest-4070386903-e1675159648327.jpg",
"Description": "",
"Author": "Snake Baker",
"Link": "/persecuted-anti-feticide-activist-mark-houck-acquitted-on-both-charges/"
}