{
"Title": "Brazil Wants to Form a Club of Countries That Want a Peace Deal Between Russia and the Ukraine",
"ThumbnailURI": "/wp-content/uploads/2022/12/meme-jew-merchant-shock-1.jpg",
"Description": "",
"Author": "Elvis Dunderhoff",
"Link": "/brazil-wants-to-form-a-club-of-countries-that-want-a-peace-deal-between-russia-and-the-ukraine/"
}