{
"Title": "European Union to Charge Airlines for Changing the Weather",
"ThumbnailURI": "/wp-content/uploads/2022/12/climatology-1.jpg",
"Description": "",
"Author": "Elvis Dunderhoff",
"Link": "/european-union-to-charge-airlines-for-changing-the-weather/"
}