{
"Title": "World Economic Forum Says Global Economy Collapsing",
"ThumbnailURI": "/wp-content/uploads/2023/01/meme-crisis-wojak-8.jpg",
"Description": "",
"Author": "Elvis Dunderhoff",
"Link": "/world-economic-forum-says-global-economy-collapsing/"
}