{
"Title": "Zelensky Says Putin is a Nobody, Does “Day in the Life” Interview with Sky News",
"ThumbnailURI": "/wp-content/uploads/2023/01/zelensky-300-1.jpg",
"Description": "",
"Author": "Elvis Dunderhoff",
"Link": "/zelensky-says-putin-is-a-nobody-does-day-in-the-life-interview-with-sky-news/"
}