{
"Title": "France Freezes RT’s Funds Following Latest EU Sanctions Package, Forces End of Operations",
"ThumbnailURI": "/wp-content/uploads/2023/01/censorship-3.jpg",
"Description": "",
"Author": "Elvis Dunderhoff",
"Link": "/france-freezes-rts-funds-following-latest-eu-sanctions-package-forces-end-of-operations/"
}