{
"Title": "Russia Provides Evidence of American Biolabs Doing Human Experiments in the Ukraine",
"ThumbnailURI": "/wp-content/uploads/2023/01/rick-morty-8.jpg",
"Description": "",
"Author": "Elvis Dunderhoff",
"Link": "/russia-provides-evidence-of-american-biolabs-doing-human-experiments-in-the-ukraine/"
}