{
"Title": "Russia to Seal Up and Mothball Sabotaged Nord Stream Pipelines, Has No Plans to Repair Them",
"ThumbnailURI": "/wp-content/uploads/2023/03/cold-wojak-1.webp",
"Description": "",
"Author": "Elvis Dunderhoff",
"Link": "/russia-to-seal-up-and-mothball-sabotaged-nord-stream-pipelines-has-no-plans-to-repair-them/"
}