{
"Title": "Democrat Senator Calls for National Security Investigation Because “Saudi Arabia Purchased Twitter”",
"ThumbnailURI": "/wp-content/uploads/2022/11/Screen-Shot-2022-11-01-at-2.39.04-PM.png",
"Description": "",
"Author": "Andrew Anglin",
"Link": "/democrat-senator-calls-for-national-security-investigation-because-saudi-arabia-purchased-twitter/"
}