{
"Title": "Racist Police Arrest Industrious Black Woman for Helping McDonald’s Staff Make a Burger",
"ThumbnailURI": "/wp-content/uploads/2022/12/meme-black-wojak-girl-1.jpg",
"Description": "",
"Author": "Elvis Dunderhoff",
"Link": "/racist-police-arrest-industrious-black-woman-for-helping-mcdonalds-staff-make-a-burger/"
}