{
"Title": "Kherson is Still Russia. No Surrender.",
"ThumbnailURI": "/wp-content/uploads/2022/11/Screen-Shot-2022-11-12-at-6.20.31-AM.png",
"Description": "",
"Author": "Andrew Anglin",
"Link": "/kherson-is-still-russia-no-surrender/"
}