{
"Title": "Woman Soccer Player Wins Settlement Against Virginia Tech After They Tried to Punish Her for Refusing to Kneel to BLM",
"ThumbnailURI": "/wp-content/uploads/2023/01/Screenshot-2023-01-09-at-9.49.34-AM.png",
"Description": "",
"Author": "Andrew Anglin",
"Link": "/woman-soccer-player-wins-settlement-against-virginia-tech-after-they-tried-to-punish-her-for-refusing-to-kneel-to-blm/"
}