{
"Title": "Eastern Europe’s Arms Industry Booming Thanks to the Ukraine Conflict",
"ThumbnailURI": "/wp-content/uploads/2022/09/poland-merchant-1-1.jpg",
"Description": "",
"Author": "Elvis Dunderhoff",
"Link": "/eastern-europes-arms-industry-booming-thanks-to-the-ukraine-conflict/"
}