{
"Title": "Barbados to Make Conservative MP Pay Reparations for Ancestors Owning Slaves",
"ThumbnailURI": "/wp-content/uploads/2022/11/stonetoss-reparations-2-1.jpg",
"Description": "",
"Author": "Elvis Dunderhoff",
"Link": "/barbados-to-make-conservative-mp-pay-reparations-for-ancestors-owning-slaves/"
}