{
"Title": "UK: School Bans Hugs, Shaking Hands to Keep Students Safe",
"ThumbnailURI": "/wp-content/uploads/2023/01/Ylx1Jc-2995658248-e1673685444777.jpg",
"Description": "",
"Author": "Snake Baker",
"Link": "/uk-school-bans-hugs-shaking-hands-to-keep-students-safe/"
}