{
"Title": "European Commission Sues Poland for Putting Its Constitution Ahead of EU Law",
"ThumbnailURI": "/wp-content/uploads/2023/02/7cf52e2517cb531d8770d5a255d590170ff80524_00-4233206170-e1676629132660.jpg",
"Description": "",
"Author": "Snake Baker",
"Link": "/european-comission-sues-poland-for-putting-its-constitution-ahead-of-eu-law/"
}