{
"Title": "Ultimate Hero Blasts Would-Be Usurper DeSanctimonious! Shots Fired! Man Down!",
"ThumbnailURI": "/wp-content/uploads/2022/11/Screen-Shot-2022-11-11-at-5.00.24-AM.png",
"Description": "",
"Author": "Andrew Anglin",
"Link": "/ultimate-hero-blasts-would-be-usurper-desanctimonious-shots-fired-man-down/"
}