{
"Title": "Jury Says Guy Who Accused Kevin Spacey of Molesting Him was Lying",
"ThumbnailURI": "/wp-content/uploads/2022/12/Screen-Shot-2022-12-03-at-5.40.04-AM.png",
"Description": "",
"Author": "Andrew Anglin",
"Link": "/jury-says-guy-who-accused-kevin-spacey-of-molesting-him-was-lying/"
}