{
"Title": "Zelensky Says He’ll Defeat Everyone in Video Titled “The Year of Invincibility”",
"ThumbnailURI": "/wp-content/uploads/2023/02/zelensky-505-1.jpg",
"Description": "",
"Author": "Elvis Dunderhoff",
"Link": "/zelensky-says-hell-defeat-everyone-in-video-titled-the-year-of-invincibility/"
}