{
"Title": "Basic Facts About Supposed Republican Losses",
"ThumbnailURI": "/wp-content/uploads/2022/11/new-us-election-map12.gif",
"Description": "",
"Author": "Andrew Anglin",
"Link": "/basic-facts-about-supposed-republican-losses/"
}