{
"Title": "Texas: State Supreme Court Denies Jeff Younger’s Attempt to Save His Son from Trannification",
"ThumbnailURI": "/wp-content/uploads/2023/01/Jeffrey-Younger-and-son-3259371136-e1672662439597.jpg",
"Description": "",
"Author": "Snake Baker",
"Link": "/texas-state-supreme-court-denies-jeff-youngers-attempt-to-save-his-son-from-trannification/"
}