{
"Title": "New Elections Result in Record Faggotry Levels Across America",
"ThumbnailURI": "/wp-content/uploads/2022/11/Yesitisexactlywhatthesefinegentlemenbelowme_d02e14a2f5f910a8905be9dd0d69d790-3495626946.jpg",
"Description": "",
"Author": "Snake Baker",
"Link": "/new-elections-result-in-record-faggotry-levels-across-america/"
}