{
"Title": "BREAKING: Jew Pig Viciously Oinks at Donald Trump…! Jews Cry Out…!",
"ThumbnailURI": "/wp-content/uploads/2022/11/Screen-Shot-2022-11-27-at-8.40.27-AM.png",
"Description": "",
"Author": "Andrew Anglin",
"Link": "/breaking-jew-pig-viciously-oinks-at-donald-trump-jews-cry-out/"
}