{
"Title": "Greece: Government Continues to Defend Democracy by Banning Parties from Elections",
"ThumbnailURI": "/wp-content/uploads/2022/07/meme-npc-soyjak-1-1.png",
"Description": "",
"Author": "Snake Baker",
"Link": "/greece-government-continues-to-defend-democracy-by-banning-parties-from-elections/"
}