{
"Title": "Milley Says It’s Time for the Ukraine to Negotiate – Jews Outraged",
"ThumbnailURI": "/wp-content/uploads/2022/11/Screen-Shot-2022-11-15-at-4.36.09-AM.png",
"Description": "",
"Author": "Andrew Anglin",
"Link": "/miley-says-its-time-for-the-ukraine-to-negotiate-jews-outraged/"
}