{
"Title": "Disney Finally Starts Promoting Obesity to Children",
"ThumbnailURI": "/wp-content/uploads/2022/10/Screen-Shot-2022-10-30-at-8.30.35-AM.png",
"Description": "",
"Author": "Snake Baker",
"Link": "/disney-finally-starts-promoting-obesity-to-children/"
}