{
"Title": "Of Course the FBI is Totally Political and of Course No Leftist Feels Bad About It",
"ThumbnailURI": "/wp-content/uploads/2023/02/fbi-10.webp",
"Description": "",
"Author": "Andrew Anglin",
"Link": "/of-course-the-fbi-is-totally-political-and-of-course-no-leftist-feels-bad-about-it/"
}