{
"Title": "Zelensky’s BFF Forced Out of Top Advisor Role After Admitting Ukraine Did Missile Deaths",
"ThumbnailURI": "/wp-content/uploads/2023/01/meme-ukraine-supporter-3.png",
"Description": "",
"Author": "Andrew Anglin",
"Link": "/zelenskys-bff-arestovich-resigns-after-revealing-hohols-behind-apartment-block-deaths/"
}