{
"Title": "Nicola Sturgeon, Scotland’s First Woman First Minister, Quits Abruptly Because Job is Too Hard",
"ThumbnailURI": "/wp-content/uploads/2023/02/Screenshot-2023-02-15-at-9.43.31-AM.png",
"Description": "",
"Author": "Elvis Dunderhoff",
"Link": "/nicola-sturgeon-scotlands-first-woman-first-minister-quits-abruptly-because-job-is-too-hard/"
}