{
"Title": "South Dakota: Barbaric Neo-Fascist Reactionaries Vote to Completely Ban Child Mutilation",
"ThumbnailURI": "/wp-content/uploads/2023/02/5786cb401b3a789a06a3df08aa8235fd-3237948696.jpg",
"Description": "",
"Author": "Snake Baker",
"Link": "/south-dakota-barbaric-neo-fascist-reactionaries-vote-to-completely-ban-child-mutilation/"
}