{
"Title": "UK: Gardening Company’s Ad Gets Banned Because It “Objectifies Women”",
"ThumbnailURI": "/wp-content/uploads/2022/11/1953-alcoa-aluminums-bottle-caps-open-without-a-knife-blade-a-bottle-opener-or-even-a-husband-3357343304-e1668761652462.jpg",
"Description": "",
"Author": "Snake Baker",
"Link": "/uk-gardening-companys-ad-gets-banned-because-it-objectifies-women/"
}