{
"Title": "Erin Brockovich Visits East Palestine, Tells People to Prepare for a Long Battle",
"ThumbnailURI": "/wp-content/uploads/2023/02/toxic-2.webp",
"Description": "",
"Author": "Elvis Dunderhoff",
"Link": "/erin-brockovich-visits-east-palestine-tells-people-to-prepare-for-a-long-battle/"
}