{
"Title": "Ginormous Bitch Griner Describes Russian Penal Colony as “Too Grindy” and “Not Fun”",
"ThumbnailURI": "/wp-content/uploads/2022/11/Screen-Shot-2022-11-16-at-9.06.54-AM.png",
"Description": "",
"Author": "Andrew Anglin",
"Link": "/ginormous-bitch-griner-describes-russian-penal-colony-as-too-grindy-and-not-fun/"
}