{
"Title": "Lukashenko Announces Belarus and Russia “Preparing Like a Single Force, A Single Army”",
"ThumbnailURI": "/wp-content/uploads/2022/12/Screen-Shot-2022-12-04-at-10.52.24-AM.png",
"Description": "",
"Author": "Elvis Dunderhoff",
"Link": "/lukashenko-announces-belarus-and-russia-preparing-like-a-single-force-a-single-army/"
}