{
"Title": "Greece: Number of Invaders Flooding Country Drops After Greeks Just Stop Letting Them In",
"ThumbnailURI": "/wp-content/uploads/2020/06/this-is-sparta-2.jpg",
"Description": "",
"Author": "Snake Baker",
"Link": "/greece-number-of-invaders-flooding-country-drops-after-greeks-just-stop-letting-them-in/"
}