{
"Title": "Zelensky Says He’s Ready to Hold “Public Format” Negotiations with Russia",
"ThumbnailURI": "/wp-content/uploads/2022/11/zelensky-41.jpg",
"Description": "",
"Author": "Elvis Dunderhoff",
"Link": "/zelensky-ready-to-hold-public-format-negotiations-with-russia/"
}