{
"Title": "Hoholistan Air Defense Kills Own Civilians, Including Toddler, During Missile Strikes",
"ThumbnailURI": "/wp-content/uploads/2022/12/zelensky-56.jpg",
"Description": "",
"Author": "Elvis Dunderhoff",
"Link": "/hoholistan-air-defense-kills-own-civilians-including-toddler-during-missile-strikes/"
}