{
"Title": "Tom Brady to Lose Big After Investing Hugely in FTX Shitcoin (For Some Reason)",
"ThumbnailURI": "/wp-content/uploads/2022/11/Screen-Shot-2022-11-10-at-6.05.43-AM.png",
"Description": "",
"Author": "Andrew Anglin",
"Link": "/tom-brady-to-lose-big-after-investing-hugely-in-ftx-shitcoin-for-some-reason/"
}