{
"Title": "Hungary Rejects “Bad, Harmful and Dangerous” Gas Price Cap",
"ThumbnailURI": "/wp-content/uploads/2022/12/meme-ukraine-supporter-3-1.jpg",
"Description": "",
"Author": "Elvis Dunderhoff",
"Link": "/hungary-rejects-bad-harmful-and-dangerous-gas-price-cap/"
}