{
"Title": "Macron Falsely Claims He’s Going to Stop Manipulating the Blacks",
"ThumbnailURI": "/wp-content/uploads/2023/03/Screenshot-2023-03-02-at-11.59.54-AM.png",
"Description": "",
"Author": "Andrew Anglin",
"Link": "/macron-falsely-claims-hes-going-to-stop-manipulating-the-blacks/"
}