{
"Title": "Federal Complaint Claims 3 Universities Excluded White Students from Country Music Program",
"ThumbnailURI": "/wp-content/uploads/2023/01/cropped-Rick-and-Morty-guitar-1755847506-e1675162405684.jpg",
"Description": "",
"Author": "Snake Baker",
"Link": "/federal-complaint-claims-3-universities-excluded-white-students-from-country-music-program/"
}