{
"Title": "Spanish Government Orders Media to Crack Down on Sexism in Toy Ads",
"ThumbnailURI": "/wp-content/uploads/2022/12/c649f9fd89151f0196fb5c824be2e2aa7f7230e6_hq-2481721075.gif",
"Description": "",
"Author": "Snake Baker",
"Link": "/spanish-government-orders-media-to-crack-down-on-sexism-in-toy-ads/"
}