{
"Title": "Sweden: Majority of Children in Malmö Now Foreigners",
"ThumbnailURI": "/wp-content/uploads/2022/04/meme-sweden-1.jpg",
"Description": "",
"Author": "Snake Baker",
"Link": "/sweden-majority-of-children-in-malmo-now-foreigners/"
}