{
"Title": "Vatican Defrocks Priest for Being Strongly Against Abortion and a Trump Supporter",
"ThumbnailURI": "/wp-content/uploads/2022/12/pope-francis-2.jpg",
"Description": "",
"Author": "Elvis Dunderhoff",
"Link": "/vatican-defrocks-priest-for-being-strongly-against-abortion-and-a-trump-supporter/"
}