{
"Title": "Ohio Chernobyl: Scientists Say People to Get Cancer After Train Derailment",
"ThumbnailURI": "/wp-content/uploads/2023/02/Screenshot-2023-02-18-at-5.11.47-AM.png",
"Description": "",
"Author": "Elvis Dunderhoff",
"Link": "/ohio-chernobyl-scientists-say-people-to-get-cancer-after-train-derailment/"
}