{
"Title": "Animals All Around the World Have Toxic Chemicals in Their Blood, Study Finds",
"ThumbnailURI": "/wp-content/uploads/2023/02/Screenshot-2023-02-22-at-8.37.40-AM.png",
"Description": "",
"Author": "Elvis Dunderhoff",
"Link": "/animals-all-around-the-world-have-toxic-chemicals-in-their-blood-study-finds/"
}