{
"Title": "More Data Shows Vaxies More Likely to “Get the Virus”",
"ThumbnailURI": "/wp-content/uploads/2022/12/Screen-Shot-2022-12-21-at-7.07.54-AM.png",
"Description": "",
"Author": "Andrew Anglin",
"Link": "/more-data-shows-vaxies-more-likely-to-get-the-virus/"
}