{
"Title": "Kyrie Tweets That He Does Not Want a War with the Jews Who Stole His Heritage",
"ThumbnailURI": "/wp-content/uploads/2022/11/Screen-Shot-2022-11-14-at-8.39.12-AM.png",
"Description": "",
"Author": "Andrew Anglin",
"Link": "/kyrie-tweets-that-he-does-not-want-a-war-with-the-jews-who-stole-his-heritage/"
}