{
"Title": "Qatar: Football Teams Drop Faggot Armbands After FIFA Threats",
"ThumbnailURI": "/wp-content/uploads/2022/11/Ganbaru-Kickers-3125968783-e1669112403721.jpg",
"Description": "",
"Author": "Snake Baker",
"Link": "/qatar-football-teams-drop-faggot-armbands-after-fifa-threats/"
}