{
"Title": "Stormer 101: Non-Whites Talk About “White Supremacy” to Explain Away Their Own Failures",
"ThumbnailURI": "/wp-content/uploads/2015/02/black-guy.jpg",
"Description": "",
"Author": "Andrew Anglin",
"Link": "/stormer-101-non-whites-talk-about-white-supremacy-to-explain-away-their-own-failures/"
}