{
"Title": "Russia Asks India to Supply Big List of Needed Products, India is Happy to Boost Trade",
"ThumbnailURI": "/wp-content/uploads/2022/11/russia-bear-1.jpg",
"Description": "",
"Author": "Elvis Dunderhoff",
"Link": "/russia-asks-india-to-supply-big-list-of-needed-products-india-is-happy-to-boost-trade/"
}