{
"Title": "Oberlin College Pays $36M to Bakery in Defamation Case After Accusing Owners of Racism",
"ThumbnailURI": "/wp-content/uploads/2022/12/meme-black-wojak-1.png",
"Description": "",
"Author": "Elvis Dunderhoff",
"Link": "/oberlin-college-pays-36m-to-bakery-in-defamation-case-after-accusing-owners-of-racism/"
}