{
"Title": "LIVE TONIGHT: Ralphamania! Ultimate Right-Wing Pre-Wrestling Event! LIVE!",
"ThumbnailURI": "/wp-content/uploads/2023/01/Screenshot-2023-01-14-at-3.36.00-PM.png",
"Description": "Today is the big day, folks.",
"Author": "Andrew Anglin",
"Link": "/live-tonight-ralphamania-ultimate-right-wing-pre-wrestling-event-live/"
}