{
"Title": "“Experts” Explain Why China has to Use a Balloon Instead of a Satellite",
"ThumbnailURI": "/wp-content/uploads/2023/02/Screenshot-2023-02-07-at-7.45.26-AM.png",
"Description": "",
"Author": "Elvis Dunderhoff",
"Link": "/experts-explain-why-china-has-to-use-a-balloon-instead-of-a-satellite/"
}