{
"Title": "It’s Happening: Elon Sieges Twitter Carrying a Sink! Ye WINS!",
"ThumbnailURI": "/wp-content/uploads/2022/10/Screen-Shot-2022-10-28-at-5.23.31-AM.png",
"Description": "",
"Author": "Andrew Anglin",
"Link": "/its-happening-elon-sieges-twitter-carrying-a-sink-trump-back-monday-ye-wins/"
}