{
"Title": "NATO Secretary Denounces Andrew Anglin’s Use of AI to Spread Chinese Propaganda",
"ThumbnailURI": "/wp-content/uploads/2023/03/Screenshot-2023-03-05-at-2.30.25-AM.png",
"Description": "",
"Author": "Daily Stormer",
"Link": "/nato-secretary-denounces-andrew-anglins-use-of-ai-to-spread-chinese-propaganda/"
}