{
"Title": "Andrew Tate Prosecution was Organized by the United States Government",
"ThumbnailURI": "/wp-content/uploads/2022/12/Screen-Shot-2022-12-31-at-8.19.14-AM.png",
"Description": "",
"Author": "Andrew Anglin",
"Link": "/andrew-tate-prosecution-was-organized-by-the-united-states-government/"
}