{
"Title": "Netherlands: Judge Decides Government Can’t Place Restrictions on “Family Reunification”",
"ThumbnailURI": "/wp-content/uploads/2022/12/Screen-Shot-2022-12-07-at-4.29.50-AM.png",
"Description": "",
"Author": "Snake Baker",
"Link": "/netherlands-judge-decides-government-cant-place-restrictions-on-family-reunification/"
}