{
"Title": "Twitter Files #6 Shows the Government Telling Twitter to Shut It Down",
"ThumbnailURI": "/wp-content/uploads/2022/12/Screen-Shot-2022-12-18-at-8.37.17-AM.png",
"Description": "",
"Author": "Andrew Anglin",
"Link": "/twitter-files-6-shows-the-government-telling-twitter-to-shut-it-down/"
}