{
"Title": "Trump Visits East Palestine, Hands Out Food and Bottled Water",
"ThumbnailURI": "/wp-content/uploads/2023/02/trump-20.webp",
"Description": "",
"Author": "Elvis Dunderhoff",
"Link": "/trump-visits-east-palestine-hands-out-food-and-bottled-water/"
}