{
"Title": "16-Year-Old Athlete Dies Suddenly and Mysteriously",
"ThumbnailURI": "/wp-content/uploads/2022/10/Screen-Shot-2022-10-25-at-3.54.18-AM.png",
"Description": "",
"Author": "",
"Link": "/16-year-old-athlete-dies-suddenly-and-mysteriously/"
}