{
"Title": "Amazon to Fire 18,000+ Employees, Now Targeting Human Resources Women",
"ThumbnailURI": "/wp-content/uploads/2023/01/laughing-crying-emoji-pixel-1.jpg",
"Description": "",
"Author": "Elvis Dunderhoff",
"Link": "/amazon-to-fire-18000-employees-now-targeting-human-resources-women/"
}