{
"Title": "Ukraine Tells Europe to Send More Billions Fast Because Russia is Coming for Them",
"ThumbnailURI": "/wp-content/uploads/2022/11/meme-ukraine-supporter-2.jpg",
"Description": "",
"Author": "Elvis Dunderhoff",
"Link": "/the-ukraine-tells-europe-to-send-more-billions-fast-because-russia-is-coming-for-them/"
}