{
"Title": "Indonesia to Punish Sex Outside Marriage with Up to One Year in Jail, Foreigners Not Exempt!",
"ThumbnailURI": "/wp-content/uploads/2022/12/meme-chad-islam-2.jpeg",
"Description": "",
"Author": "Elvis Dunderhoff",
"Link": "/indonesia-to-punish-sex-outside-marriage-with-up-to-one-year-in-jail-foreigners-not-exempt/"
}