{
"Title": "Poland Creating New Infantry Division with Modern Hardware to Fight Russia",
"ThumbnailURI": "/wp-content/uploads/2023/01/poland-1.jpg",
"Description": "",
"Author": "Elvis Dunderhoff",
"Link": "/poland-creating-new-infantry-division-with-modern-hardware-to-fight-russia/"
}