{
"Title": "Tulsa: 12-Year-Old Girl Stabs 9-Year-Old Brother to Death, Wakes Parents Up to Confess",
"ThumbnailURI": "/wp-content/uploads/2023/01/knife-girl-1.jpg",
"Description": "",
"Author": "Elvis Dunderhoff",
"Link": "/tulsa-12-year-old-girl-stabs-9-year-old-brother-to-death-wakes-parents-up-to-confess/"
}