{
"Title": "It Begins: Woman Declares Her Love for Bryan Kohberger, Murderer of Skanks",
"ThumbnailURI": "/wp-content/uploads/2022/04/meme-female-wojak-1.jpg",
"Description": "",
"Author": "Andrew Anglin",
"Link": "/it-begins-woman-declares-her-love-for-bryan-kohberger-murderer-of-skanks/"
}