{
"Title": "Ex-Tranny Teen Sues Doctors Who Cut Her Tits Off, Put Her on Puberty Blockers",
"ThumbnailURI": "/wp-content/uploads/2022/11/vDSdulkr3JMPyCGPENZBr88wlUw-1159714740.jpg",
"Description": "",
"Author": "Snake Baker",
"Link": "/ex-tranny-teen-sues-doctors-who-cut-her-tits-off-put-her-on-puberty-blockers/"
}