{
"Title": "Chinese Delegation Visits Taiwan, Warm Reception, Happy Times, Barely a Dozen Protesters",
"ThumbnailURI": "/wp-content/uploads/2023/02/china-bear-11.webp",
"Description": "",
"Author": "Andrew Anglin",
"Link": "/chinese-delegation-visits-taiwan-warm-reception-happy-times-barely-a-dozen-protesters/"
}