{
"Title": "Wales: Neo-Nazi Parents Keep Protesting Sexual Education for Toddlers",
"ThumbnailURI": "/wp-content/uploads/2022/11/Screen-Shot-2022-11-18-at-3.15.45-AM.png",
"Description": "",
"Author": "Snake Baker",
"Link": "/wales-neo-nazi-parents-keep-protesting-sexual-education-for-toddlers/"
}