{
"Title": "Gay Faggot Josh Hawley Says It’s More Important to Continue Occupying Taiwan Than to Occupy Donbass",
"ThumbnailURI": "/wp-content/uploads/2022/12/Screen-Shot-2022-12-07-at-6.57.37-AM.png",
"Description": "",
"Author": "Andrew Anglin",
"Link": "/gay-faggot-josh-hawley-says-its-more-important-to-continue-occupying-taiwan-than-to-occupy-donbass/"
}