{
"Title": "Jewlash: Following Ye Interview, House Nigger Noreaga Sucks Jew Cock Live on Video",
"ThumbnailURI": "/wp-content/uploads/2022/10/Screen-Shot-2022-10-18-at-4.50.29-AM.png",
"Description": "",
"Author": "",
"Link": "/jewlash-following-ye-interview-house-nigger-noreaga-sucks-jew-cock-live-on-video/"
}