{
"Title": "Top US War Cunt Known Only as “Road Dog” Confirms Support for Attacks on Crimea",
"ThumbnailURI": "/wp-content/uploads/2023/02/Screenshot-2023-02-11-at-6.45.16-AM.png",
"Description": "",
"Author": "Andrew Anglin",
"Link": "/top-us-war-cunt-known-only-as-road-dog-confirms-support-for-attacks-on-crimea/"
}