{
"Title": "2006 Dutch Study That Said Puberty Blockers Were Safe was Funded by Maker of Puberty Blockers",
"ThumbnailURI": "/wp-content/uploads/2023/01/franken-stein-u3-309219895-e1673086663164.jpg",
"Description": "",
"Author": "Snake Baker",
"Link": "/2006-dutch-study-that-said-puberty-blockers-were-safe-was-funded-by-maker-of-puberty-blockers/"
}