{
"Title": "Google to Experiment in India with Mass Online “Prebunking” to Combat “Misinformation”",
"ThumbnailURI": "/wp-content/uploads/2022/12/internet-censorship-1-1.jpg",
"Description": "",
"Author": "Elvis Dunderhoff",
"Link": "/google-to-experiment-in-india-with-mass-online-prebunking-to-combat-misinformation/"
}