{
"Title": "Is Kamala a Real Person?",
"ThumbnailURI": "/wp-content/uploads/2023/02/Screenshot-2023-02-12-at-8.32.12-AM.png",
"Description": "",
"Author": "Andrew Anglin",
"Link": "/is-kamala-a-real-person/"
}