{
"Title": "UN Wants to Ruin Afghanistan Because They Won’t Let Sluts Go Buckwild All Over the Place",
"ThumbnailURI": "/wp-content/uploads/2022/12/Screen-Shot-2022-12-24-at-7.40.02-AM.png",
"Description": "",
"Author": "Andrew Anglin",
"Link": "/un-wants-to-ruin-afghanistan-because-they-wont-let-sluts-go-buckwild-all-over-the-place/"
}