{
"Title": "San Francisco Reparations Committee Says Every Black in City Should Get 5 Million Dollars",
"ThumbnailURI": "/wp-content/uploads/2023/01/richest-anime-characters-nami-and-money-238692-1029388558-e1674113394923.jpg",
"Description": "",
"Author": "Snake Baker",
"Link": "/san-francisco-reparations-committee-says-every-black-in-city-should-get-5-million-dollars/"
}