{
"Title": "Wisconsin: School District Does Weeklong Tranny Indoctrination for Elementary School Students",
"ThumbnailURI": "/wp-content/uploads/2023/01/snrawy3cj7wqjen6h4hugbfiluofpbpu_hq-2897449092-e1674817196679.jpg",
"Description": "",
"Author": "Snake Baker",
"Link": "/wisconsin-school-district-does-weeklong-tranny-indoctrination-for-elementary-school-students/"
}