{
"Title": "NJ High School Students Perform Private Drag Show for Select Staff",
"ThumbnailURI": "/wp-content/uploads/2022/12/tales-crypt-9.jpg",
"Description": "",
"Author": "Elvis Dunderhoff",
"Link": "/nj-high-school-students-perform-private-drag-show-for-select-staff/"
}