{
"Title": "Male Takes First Place on Girls’ Track Team, Qualifies Team for State Championship",
"ThumbnailURI": "/wp-content/uploads/2022/05/meme-chad-tranny-2.jpg",
"Description": "",
"Author": "Elvis Dunderhoff",
"Link": "/male-takes-first-place-on-girls-track-team-qualifies-team-for-state-championship/"
}