{
"Title": "Ex-Wife Denounces Our Ye! If That Chick Don’t Wanna Know – Forget Her!",
"ThumbnailURI": "/wp-content/uploads/2022/10/Screen-Shot-2022-10-25-at-4.38.02-AM.png",
"Description": "",
"Author": "Andrew Anglin",
"Link": "/ex-wife-denounces-our-ye-if-that-chick-dont-wanna-know-forget-her/"
}