{
"Title": "Ireland: Most Popular Newborn Boy’s Name is Muhammad in 4th Largest City",
"ThumbnailURI": "/wp-content/uploads/2023/02/untitled_by_azumariko-d7agz12-385105402-e1677572253769.png",
"Description": "",
"Author": "Snake Baker",
"Link": "/ireland-most-popular-newborn-boys-name-is-muhammad-in-4th-largest-city/"
}