{
"Title": "With Extra Makeup, Sandy Cortez Says She’s Afraid to Walk Her Dog Because Everyone is Trying to Kill Her",
"ThumbnailURI": "/wp-content/uploads/2022/11/Screen-Shot-2022-11-12-at-5.41.15-AM.png",
"Description": "What an annoying bitch.",
"Author": "Andrew Anglin",
"Link": "/with-extra-makeup-sandy-cortez-says-shes-afraid-to-walk-her-dog-because-everyone-is-trying-to-kill-her/"
}