{
"Title": "Norway: The Science Gets $1.2 Million to Study If White Paint is Racist",
"ThumbnailURI": "/wp-content/uploads/2023/01/white3-3985801019.jpg",
"Description": "",
"Author": "Snake Baker",
"Link": "/norway-the-science-gets-1-2-million-to-study-if-white-paint-is-racist/"
}