{
"Title": "Memetic Monday: It’s Called We Do a Little Monday Memes (Encore)",
"ThumbnailURI": "/wp-content/uploads/2023/01/Screenshot-2023-01-23-at-9.16.58-AM-1.png",
"Description": "",
"Author": "Andrew Anglin",
"Link": "/memetic-monday-its-called-we-do-a-little-monday-memes/"
}