{
"Title": "Maybe If the Ukraine has Drones, They Will Really Start Winning?",
"ThumbnailURI": "/wp-content/uploads/2022/12/meme-ukraine-supporter-3-1.jpg",
"Description": "",
"Author": "Andrew Anglin",
"Link": "/maybe-if-the-ukraine-has-drones-they-will-really-start-winning/"
}