{
"Title": "Russian Hockey Player’s Jersey Sells Out After He Refuses to Celebrate Faggotry",
"ThumbnailURI": "/wp-content/uploads/2023/01/sgtfroganimefuuyukihinatavssargekeroroinicehockeymatchwinterolympicsspoof-1100911751-e1674548414543.jpg",
"Description": "",
"Author": "Snake Baker",
"Link": "/russian-hockey-players-jersey-sells-out-after-he-refuses-to-celebrate-faggotry/"
}