{
"Title": "Ye on the Jews: “They’ve Been Fucking with Me for Too Long”",
"ThumbnailURI": "/wp-content/uploads/2022/10/Screen-Shot-2022-10-16-at-9.09.19-AM.png",
"Description": "",
"Author": "",
"Link": "/ye-on-the-jews-theyve-been-fucking-with-me-for-too-long/"
}