{
"Title": "Brandon Explains Delay in Shooting Down the Balloon",
"ThumbnailURI": "/wp-content/uploads/2023/02/Screenshot-2023-02-05-at-8.04.54-AM.png",
"Description": "",
"Author": "Andrew Anglin",
"Link": "/brandon-explains-delay-in-shooting-down-the-balloon/"
}