{
"Title": "Satanic Temple to Open Their First Feticide Facility in New Mexico",
"ThumbnailURI": "/wp-content/uploads/2022/03/moloch-2-1.jpeg",
"Description": "",
"Author": "Snake Baker",
"Link": "/satanic-temple-to-open-their-first-feticide-facility-in-new-mexico/"
}