{
"Title": "Canada: “The Flu” Gives 6-Year-Old Girl Myocarditis, Massive Stroke, Death",
"ThumbnailURI": "/wp-content/uploads/2022/12/WJAl-XKi-e1671526206132.jpg",
"Description": "",
"Author": "Snake Baker",
"Link": "/canada-the-flu-gives-6-year-old-girl-myocarditis-massive-stroke-death/"
}