{
"Title": "US Dairy Policies Destroy Small Farms as Bill Gates Keeps Buying All of the Farmland",
"ThumbnailURI": "/wp-content/uploads/2023/01/meme-clown-wojak-2.jpg",
"Description": "",
"Author": "Elvis Dunderhoff",
"Link": "/us-dairy-policies-destroy-small-farms-as-bill-gates-keeps-buying-all-of-the-farmland/"
}