{
"Title": "Jew Vindman Doing “Private” Project to Hire Hundreds of Americans to Do Repairs on Ukraine Battlefield",
"ThumbnailURI": "/wp-content/uploads/2022/12/meme-american-jew-2-2.jpg",
"Description": "",
"Author": "Elvis Dunderhoff",
"Link": "/jew-vindman-doing-private-project-to-hire-hundreds-of-americans-to-do-repairs-on-ukraine-battlefield/"
}