{
"Title": "Biden Endorses Jew Terrorist Zelensky’s Fake “Peace Plan,” Vows Infinity Weapons Again",
"ThumbnailURI": "/wp-content/uploads/2022/12/Screen-Shot-2022-12-12-at-4.47.33-AM.png",
"Description": "",
"Author": "Andrew Anglin",
"Link": "/biden-endorses-jew-terrorist-zelenskys-fake-peace-plan-vows-infinity-weapons-again/"
}