{
"Title": "FDA Considers Annual Calamari Clot Shots",
"ThumbnailURI": "/wp-content/uploads/2023/01/Screenshot-2023-01-24-at-6.29.47-AM.png",
"Description": "",
"Author": "Elvis Dunderhoff",
"Link": "/fda-considers-yearly-calamari-clot-shots/"
}