{
"Title": "A Quarter of Europeans are Unable to Heat Their Homes",
"ThumbnailURI": "/wp-content/uploads/2023/01/Screenshot-2023-01-07-at-5.14.24-AM.png",
"Description": "",
"Author": "Andrew Anglin",
"Link": "/a-quarter-of-europeans-are-unable-to-heat-their-homes/"
}