{
"Title": "Pornography and You",
"ThumbnailURI": "/wp-content/uploads/2022/12/Screen-Shot-2022-12-04-at-1.45.16-PM.png",
"Description": "",
"Author": "Andrew Anglin",
"Link": "/pornography-and-you/"
}