{
"Title": "Poland: Black Eyed Peas Wear Faggot Armbands for New Year’s Eve Concert",
"ThumbnailURI": "/wp-content/uploads/2023/01/puking-rainbows-991810553-e1672728288685.jpg",
"Description": "",
"Author": "Snake Baker",
"Link": "/poland-black-eyed-peas-wear-faggot-armbands-for-new-years-eve-concert/"
}