{
"Title": "Yellen Says America to Default by June",
"ThumbnailURI": "/wp-content/uploads/2022/12/meme-ukraine-supporter-3-1.jpg",
"Description": "",
"Author": "Elvis Dunderhoff",
"Link": "/yellen-says-america-to-default-by-june/"
}