{
"Title": "China Says Rules-Based Order Means America Spreads Disaster and Robs Everyone",
"ThumbnailURI": "/wp-content/uploads/2022/12/meme-american-jew-2-2.jpg",
"Description": "",
"Author": "Elvis Dunderhoff",
"Link": "/china-says-rules-based-order-means-america-spreads-disaster-and-steals-resources/"
}