{
"Title": "Spy Balloon: Dawn of the Balloon Age",
"ThumbnailURI": "/wp-content/uploads/2023/02/230203-china-baloon-mb-0707-77d323.webp",
"Description": "",
"Author": "Andrew Anglin",
"Link": "/spy-balloon-dawn-of-the-balloon-age/"
}