{
"Title": "Ohio Residents Angry as Kids Report Chemical Smell in School Hallways",
"ThumbnailURI": "/wp-content/uploads/2023/02/evil-hooded-skull-vector-clipart.png",
"Description": "",
"Author": "Elvis Dunderhoff",
"Link": "/ohio-residents-angry-as-kids-report-chemical-smell-in-school-hallways/"
}