{
"Title": "NGOs Whine After Based Dominicans Deport Haitians",
"ThumbnailURI": "/wp-content/uploads/2022/12/angry-anime-gif-14-1829802888.gif",
"Description": "",
"Author": "Snake Baker",
"Link": "/ngos-whine-after-based-dominicans-deport-haitians/"
}