{
"Title": "Vaginal Empire Threatens Musk Over Free Speech",
"ThumbnailURI": "/wp-content/uploads/2022/11/Screen-Shot-2022-11-03-at-12.13.41-AM.png",
"Description": "",
"Author": "Andrew Anglin",
"Link": "/vaginal-empire-threatens-musk-over-free-speech/"
}