{
"Title": "UK’s Nurses Announce First Ever National Strike Because of Cost of Living Crisis",
"ThumbnailURI": "/wp-content/uploads/2022/11/Screen-Shot-2022-11-11-at-2.36.03-AM.png",
"Description": "",
"Author": "Elvis Dunderhoff",
"Link": "/uks-nurses-announce-first-ever-national-strike-because-of-cost-of-living-crisis/"
}