{
"Title": "Poland Demands €1.32 Trillion WW2 Reparations from Germany, Says Russia is Next",
"ThumbnailURI": "/wp-content/uploads/2022/10/horror-32.webp",
"Description": "",
"Author": "Elvis Dunderhoff",
"Link": "/poland-demands-e1-32-trillion-ww2-reparations-from-germany-says-russia-is-next/"
}