{
"Title": "The Massacre Continues: Anglin Trends on Twitter After Laying Down the Law of Sex",
"ThumbnailURI": "/wp-content/uploads/2022/12/Screen-Shot-2022-12-19-at-3.30.49-AM.png",
"Description": "",
"Author": "Andrew Anglin",
"Link": "/the-massacre-continues-anglin-trends-on-twitter-after-laying-down-the-law-of-sex/"
}