{
"Title": "Jew Pressure Group Orders Ronaldo to Whine About Saudi Arabia",
"ThumbnailURI": "/wp-content/uploads/2023/01/c02d69b44f2f515ab2ba11b31ce7e84b-cristiano-ronaldo-2727925189-e1673003578879.jpg",
"Description": "",
"Author": "Snake Baker",
"Link": "/jew-pressure-group-orders-ronaldo-to-whine-about-saudi-arabia/"
}