{
"Title": "London Cop Rapes Dozens of Women, Puts Them on a Diet, Forces Them to Clean His House While Naked",
"ThumbnailURI": "/wp-content/uploads/2023/01/emoji-laugh-2.jpg",
"Description": "",
"Author": "Elvis Dunderhoff",
"Link": "/london-cop-rapes-dozens-of-women-puts-them-on-a-diet-forces-them-to-clean-his-house-while-naked/"
}