{
"Title": "France: Small Village Defeats Jewish Plan to Flood Them with Diversity",
"ThumbnailURI": "/wp-content/uploads/2023/01/047723fa48504629c66c451344f4d9348ceb7253_hq-3691516739-e1674119720899.jpg",
"Description": "",
"Author": "Snake Baker",
"Link": "/france-small-village-defeats-jewish-plan-to-flood-them-with-diversity/"
}