{
"Title": "Boulder: Main Public Library Closes Because There is Too Much Meth Resin in the Vents",
"ThumbnailURI": "/wp-content/uploads/2023/01/Screen-Shot-2023-01-01-at-2.17.05-PM.png",
"Description": "",
"Author": "Andrew Anglin",
"Link": "/boulder-main-public-library-closes-because-there-is-too-much-meth-resin-in-the-vents/"
}