{
"Title": "Germany: Doctor Says Government is Actively Covering Up Vax Injuries Among His Patients",
"ThumbnailURI": "/wp-content/uploads/2021/11/meme-jew-merchant-vax-vaccine-1-1.jpeg",
"Description": "",
"Author": "Snake Baker",
"Link": "/germany-doctor-says-government-is-actively-covering-up-vax-injuries-among-his-patients/"
}