{
"Title": "Ohio Chernobyl: Train had Even More Toxic Chemicals Than Reported, Animals are Dying",
"ThumbnailURI": "/wp-content/uploads/2023/02/gasmask-1.webp",
"Description": "",
"Author": "Elvis Dunderhoff",
"Link": "/ohio-chernobyl-train-had-even-more-toxic-chemicals-than-reported-animals-are-dying/"
}