{
"Title": "Ohio: Elementary School Starts New Drag Queen Storytime Tradition for the Kiddies",
"ThumbnailURI": "/wp-content/uploads/2022/04/meme-drag-queen-tranny-demon-1-1.jpg",
"Description": "",
"Author": "Snake Baker",
"Link": "/ohio-elementary-school-starts-new-drag-queen-storytime-tradition-for-the-kiddies/"
}