{
"Title": "France: 88-Year-Old Has WWI Artillery Shell Removed from His Anus by Doctors",
"ThumbnailURI": "/wp-content/uploads/2022/12/wwi-missile-rectum-01-e1671702676727.webp",
"Description": "",
"Author": "Snake Baker",
"Link": "/france-88-year-old-has-wwi-artillery-shell-removed-from-his-anus-by-doctors/"
}