{
"Title": "Cop on Cop Violence – In Vermont! (Wild Video)",
"ThumbnailURI": "/wp-content/uploads/2022/11/Screen-Shot-2022-11-21-at-5.31.27-AM.png",
"Description": "",
"Author": "Andrew Anglin",
"Link": "/cop-on-cop-violence-in-vermont-wild-video/"
}