{
"Title": "Ye Begs Massa Emanuel to Spare the Kids After Being Told “Get Back in Your Place, Nigger”",
"ThumbnailURI": "/wp-content/uploads/2022/10/Screen-Shot-2022-10-31-at-12.08.43-AM-1.png",
"Description": "",
"Author": "Andrew Anglin",
"Link": "/ye-begs-massa-emanuel-to-spare-the-kids-after-being-told-get-back-in-your-place-nigger/"
}