{
"Title": "Macron Denounces US Plan to Do Regime Change in Russia",
"ThumbnailURI": "/wp-content/uploads/2023/02/Screenshot-2023-02-18-at-7.20.26-AM.png",
"Description": "",
"Author": "Andrew Anglin",
"Link": "/macron-denounces-us-plan-to-do-regime-change-in-russia/"
}