{
"Title": "India Eager to Ignore American Orders and Double Trade with Russia Using Indian Rupee",
"ThumbnailURI": "/wp-content/uploads/2022/11/india-russia-bears-1-1.jpg",
"Description": "",
"Author": "Elvis Dunderhoff",
"Link": "/india-eager-to-ignore-american-orders-and-double-trade-with-russia-using-indian-rupee/"
}