{
"Title": "Zelensky Junta Destroys Millions of Russian-Language Books in Public Libraries",
"ThumbnailURI": "/wp-content/uploads/2023/02/Screenshot-2023-02-08-at-2.41.28-AM.png",
"Description": "",
"Author": "Elvis Dunderhoff",
"Link": "/zelensky-junta-destroys-millions-of-russian-language-books-in-public-libraries/"
}