{
"Title": "Whiny Black “Princess” Says She Wanted to Kill Herself Because of Whites",
"ThumbnailURI": "/wp-content/uploads/2022/12/Screen-Shot-2022-12-07-at-7.59.32-AM.png",
"Description": "",
"Author": "Andrew Anglin",
"Link": "/whiny-black-princess-says-she-wanted-to-kill-herself-because-of-whites/"
}