{
"Title": "Taliban Whipping Women Who Try to Enter Universities",
"ThumbnailURI": "/wp-content/uploads/2022/12/Screen-Shot-2022-12-21-at-6.43.13-AM.png",
"Description": "",
"Author": "Elvis Dunderhoff",
"Link": "/taliban-whipping-women-who-try-to-enter-universities/"
}