{
"Title": "European Traders Rush to Buy Russian Diesel Before EU Ban Begins in February",
"ThumbnailURI": "/wp-content/uploads/2022/11/emoji-laugh-cry-1.jpg",
"Description": "",
"Author": "Elvis Dunderhoff",
"Link": "/european-traders-rush-to-buy-russian-diesel-before-eu-ban-begins-in-february/"
}