{
"Title": "US Says They’re Going to Figure Out Where All These Weapons to the Ukraine are Actually Going",
"ThumbnailURI": "/wp-content/uploads/2022/12/Screen-Shot-2022-12-15-at-10.01.54-AM.png",
"Description": "",
"Author": "Andrew Anglin",
"Link": "/us-says-theyre-going-to-figure-out-where-all-these-weapons-to-the-ukraine-are-actually-going/"
}