{
"Title": "New York City Starts Giving Away Free Abortion Pills to Anyone",
"ThumbnailURI": "/wp-content/uploads/2023/01/9ecf091c8e361d677c93898bb41d3095-3618329977-e1674552564371.png",
"Description": "",
"Author": "Snake Baker",
"Link": "/new-york-city-starts-giving-away-free-abortion-pills-to-anyone/"
}