{
"Title": "Greta Thunberg’s Army Clashes with German Police in White Supremacist Fight Against “Coal Burning”",
"ThumbnailURI": "/wp-content/uploads/2023/01/greta-thunberg-nazi-1.jpg",
"Description": "",
"Author": "Elvis Dunderhoff",
"Link": "/greta-thunbergs-army-clashes-with-german-police-in-white-supremacist-fight-against-coal-burning/"
}