{
"Title": "Atlanta: Antifa Tried to Bring Bombs to Rising New BLM Protest Movement",
"ThumbnailURI": "/wp-content/uploads/2022/12/meme-black-wojak-1.png",
"Description": "",
"Author": "Andrew Anglin",
"Link": "/atlanta-antifa-tried-to-bring-bombs-to-rising-new-blm-protest-movement/"
}