{
"Title": "War on Christianity: “Pope” Francis Denounces Anti-LGBTQ Laws, Says God Loves Faggots",
"ThumbnailURI": "/wp-content/uploads/2023/02/lgbtq-satan-jew-1.webp",
"Description": "",
"Author": "Elvis Dunderhoff",
"Link": "/war-on-christianity-pope-francis-denounces-anti-lgbtq-laws-says-god-loves-faggots/"
}