{
"Title": "US Worries Military Aid to the Ukraine Means Less Weapons Shipments to Taiwan",
"ThumbnailURI": "/wp-content/uploads/2022/11/struggle-choices-1.jpg",
"Description": "",
"Author": "Elvis Dunderhoff",
"Link": "/us-worries-military-aid-to-the-ukraine-means-less-weapons-shipments-to-taiwan/"
}