{
"Title": "US Sends Fighter Jets to Persian Gulf in “Show of Force” Against Iran",
"ThumbnailURI": "/wp-content/uploads/2022/11/Screen-Shot-2022-11-07-at-3.46.47-AM.png",
"Description": "",
"Author": "Andrew Anglin",
"Link": "/us-sends-fighter-jets-to-persian-gulf-in-show-of-force-against-iran/"
}