{
"Title": "UK Suffers “Permanent” Reduction in Living Standards",
"ThumbnailURI": "/wp-content/uploads/2023/02/crisis-wojak-8-1.webp",
"Description": "",
"Author": "Elvis Dunderhoff",
"Link": "/uk-suffers-permanent-reduction-in-living-standards/"
}