{
"Title": "UK: Man Who Went Tranny and Trans Racial (Korean) Claims He’s Normal Again, Denounces Tranny Agenda",
"ThumbnailURI": "/wp-content/uploads/2022/11/ollie-london.png",
"Description": "",
"Author": "Andrew Anglin",
"Link": "/uk-man-who-went-tranny-and-trans-racial-korean-claims-hes-normal-again-denounces-tranny-agenda/"
}