{
"Title": "Memphis Police Chief Asks Black People Not to Riot Over Release of Cop Brutality Footage",
"ThumbnailURI": "/wp-content/uploads/2023/01/Screenshot-2023-01-26-at-2.24.31-PM.png",
"Description": "",
"Author": "Elvis Dunderhoff",
"Link": "/memphis-police-chief-asks-black-people-not-to-riot-over-release-of-cop-brutality-footage/"
}