{
"Title": "18-Year-Old Girl Dies After Getting Vaxed Against Parents’ Wishes",
"ThumbnailURI": "/wp-content/uploads/2022/12/vax-death.png",
"Description": "",
"Author": "Snake Baker",
"Link": "/18-year-old-girl-dies-after-getting-vaxed-against-parents-wishes/"
}