{
"Title": "Pfizer Says They Actually are Engineering Viruses",
"ThumbnailURI": "/wp-content/uploads/2023/01/Screenshot-2023-01-29-at-2.45.48-PM.png",
"Description": "",
"Author": "Andrew Anglin",
"Link": "/pfizer-says-they-actually-are-engineering-viruses/"
}