{
"Title": "Portland Sets New Homicide Record in 2022, And the Year Isn’t Even Over",
"ThumbnailURI": "/wp-content/uploads/2022/11/anime-gun-1.jpg",
"Description": "",
"Author": "Snake Baker",
"Link": "/portland-sets-new-homicide-record-in-2022-and-the-year-isnt-even-over/"
}