{
"Title": "California: Injun Professor Suddenly Discovers She’s Not Really Injun at All",
"ThumbnailURI": "/wp-content/uploads/2022/11/Screen-Shot-2022-11-14-at-8.46.56-AM.png",
"Description": "",
"Author": "Snake Baker",
"Link": "/california-injun-professor-suddenly-discovers-shes-not-really-injun-at-all/"
}