{
"Title": "Kevin McCarthy Continues the Humiliation – Gaetz Votes TRUMP on 7th Ballot!",
"ThumbnailURI": "/wp-content/uploads/2023/01/Screenshot-2023-01-05-at-1.15.41-PM.png",
"Description": "",
"Author": "Andrew Anglin",
"Link": "/kevin-mccarthy-continues-the-humiliation-trump-taints-himself-by-hitching-to-sinking-ship/"
}