{
"Title": "Border Patrol Begs for Help as Mexicans Invade America from Canada!",
"ThumbnailURI": "/wp-content/uploads/2023/02/orc-11.webp",
"Description": "",
"Author": "Elvis Dunderhoff",
"Link": "/border-patrol-begs-for-help-as-mexicans-invade-america-from-canada/"
}