{
"Title": "Virginia: Black Does University Shooting, Kills 3 from His Football Team",
"ThumbnailURI": "/wp-content/uploads/2022/11/Screen-Shot-2022-11-15-at-6.17.23-AM.png",
"Description": "",
"Author": "Elvis Dunderhoff",
"Link": "/virginia-black-does-university-shooting-kills-3-from-his-football-team/"
}