{
"Title": "Memetic Monday: That’s All She Wrote",
"ThumbnailURI": "/wp-content/uploads/2022/11/Screen-Shot-2022-11-21-at-9.30.18-AM.png",
"Description": "",
"Author": "Andrew Anglin",
"Link": "/memetic-monday-thats-all-she-wrote/"
}