{
"Title": "It’s All Happening.",
"ThumbnailURI": "/wp-content/uploads/2022/11/Screen-Shot-2022-11-25-at-10.05.32-AM.png",
"Description": "",
"Author": "Andrew Anglin",
"Link": "/its-all-happening/"
}