{
"Title": "Large Marge has Anti-Balloon Freakout in Government Meeting",
"ThumbnailURI": "/wp-content/uploads/2023/02/Screenshot-2023-02-11-at-5.30.31-AM.png",
"Description": "",
"Author": "Andrew Anglin",
"Link": "/large-marge-has-anti-balloon-freakout-in-government-meeting/"
}