{
"Title": "Florida: 10-Year-Old Black Boy #MeToo’d by Racist School Counselor Slut for Alleged Groping",
"ThumbnailURI": "/wp-content/uploads/2022/11/groping-2.jpg",
"Description": "",
"Author": "Elvis Dunderhoff",
"Link": "/florida-10-year-old-black-boy-metood-by-racist-school-counselor-slut-for-alleged-groping/"
}