{
"Title": "UK Admits to Sending the Marines Into the Ukraine",
"ThumbnailURI": "/wp-content/uploads/2022/12/zelensky-thumb.png",
"Description": "",
"Author": "Andrew Anglin",
"Link": "/uk-admits-to-sending-the-marines-into-the-ukraine/"
}