{
"Title": "WEF Discusses Global Digital Surveillance Infrastructure to Track People’s Vaccination Status",
"ThumbnailURI": "/wp-content/uploads/2021/09/meme-bugman-qr-1-1.jpg",
"Description": "",
"Author": "Elvis Dunderhoff",
"Link": "/wef-discusses-global-digital-surveillance-infrastructure-to-track-peoples-vaccination-status/"
}