{
"Title": "Israel: Massive Gay and Anal Protests Against Net and Yoohoo",
"ThumbnailURI": "/wp-content/uploads/2022/11/meme-jew-fights-jew-1.jpg",
"Description": "",
"Author": "Elvis Dunderhoff",
"Link": "/israel-massive-gay-and-anal-protests-against-net-and-yoohoo/"
}