{
"Title": "Colorado: Faggots Shocked When the Gay Disco is Shot Up – Five Dead Cocksuckers!",
"ThumbnailURI": "/wp-content/uploads/2022/11/doom-thumb.png",
"Description": "",
"Author": "Andrew Anglin",
"Link": "/colorado-faggots-shocked-when-the-gay-disco-is-shot-up-five-dead-cocksuckers/"
}