{
"Title": "I Like the 280 Character Limit on Twitter. 4000 is Way Too Long",
"ThumbnailURI": "/wp-content/uploads/2022/12/Screen-Shot-2022-12-11-at-1.01.24-PM.png",
"Description": "",
"Author": "Andrew Anglin",
"Link": "/i-like-the-280-character-limit-on-twitter-4000-is-way-too-long/"
}