{
"Title": "Ireland: Government Slightly Backtracks on Tranny Indoctrination in Schools",
"ThumbnailURI": "/wp-content/uploads/2023/03/cd4-3131626550-e1677840915405.gif",
"Description": "",
"Author": "Snake Baker",
"Link": "/ireland-government-slightly-backtracks-on-tranny-indoctrination-in-schools/"
}