{
"Title": "Ireland: Children’s Minister Demands Tranny Lessons in Elementary Schools",
"ThumbnailURI": "/wp-content/uploads/2022/04/meme-drag-queen-tranny-demon-1-1.jpg",
"Description": "",
"Author": "Snake Baker",
"Link": "/ireland-childrens-minister-demands-tranny-lessons-in-elementary-schools/"
}