{
"Title": "Biden Declares Himself Best President in American History",
"ThumbnailURI": "/wp-content/uploads/2022/12/Screen-Shot-2022-12-02-at-12.46.25-AM.png",
"Description": "",
"Author": "Elvis Dunderhoff",
"Link": "/biden-declares-himself-best-president-in-american-history/"
}