{
"Title": "Brandon Says War Against Russia Entering “Crucial Phase”",
"ThumbnailURI": "/wp-content/uploads/2023/01/Screenshot-2023-01-06-at-10.14.02-AM.png",
"Description": "",
"Author": "Andrew Anglin",
"Link": "/brandon-says-war-against-russia-entering-crucial-phase/"
}