{
"Title": "UK: Number of Female Pedophiles Mysteriously Increases After Cops Count Trannies as Women",
"ThumbnailURI": "/wp-content/uploads/2019/05/old-ugly-tranny-1.jpg",
"Description": "",
"Author": "Snake Baker",
"Link": "/uk-number-of-female-pedophiles-mysteriously-increases-after-cops-count-trannies-as-women/"
}