{
"Title": "It’s Over. Ye Wins. Total Aryan Victory.",
"ThumbnailURI": "/wp-content/uploads/2022/10/Screen-Shot-2022-10-27-at-4.49.06-PM.png",
"Description": "",
"Author": "Andrew Anglin",
"Link": "/its-over-ye-wins-total-aryan-victory/"
}