{
"Title": "Yellen Wants to Rebuild IRS to Improve Squeezing of Taxpayers",
"ThumbnailURI": "/wp-content/uploads/2022/08/irs-guns-1.jpg",
"Description": "",
"Author": "Elvis Dunderhoff",
"Link": "/yellen-wants-to-rebuild-irs-to-improve-squeezing-of-taxpayers/"
}