{
"Title": "North Korea Successfully Tests Solid-Fuel Engine Capable of Making ICBMs Deadlier",
"ThumbnailURI": "/wp-content/uploads/2022/12/Screen-Shot-2022-12-17-at-2.42.31-AM.png",
"Description": "",
"Author": "Elvis Dunderhoff",
"Link": "/north-korea-successfully-tests-solid-fuel-engine-capable-of-making-icbms-deadlier/"
}