{
"Title": "Northern Ireland: 46-Year-Old Non-Fat Journalist Dies Suddenly",
"ThumbnailURI": "/wp-content/uploads/2023/01/calamari-.png",
"Description": "",
"Author": "Snake Baker",
"Link": "/northern-ireland-46-year-old-non-fat-journalist-dies-suddenly/"
}