{
"Title": "Serious President Biden Confuses Ukraine with Iraq, Says Russia Pulled Troops from Fallujah",
"ThumbnailURI": "/wp-content/uploads/2022/11/joe-biden-senile-1.jpg",
"Description": "",
"Author": "Elvis Dunderhoff",
"Link": "/serious-president-biden-says-russia-pulled-troops-from-fallujah-confuses-ukraine-with-iraq/"
}