{
"Title": "Michigan: Dearborn School Board Removes Some Gay Porn Books After Moslems Protest",
"ThumbnailURI": "/wp-content/uploads/2022/11/o-MUSLIM-DAD-facebook-238580655-e1668768116235.jpg",
"Description": "",
"Author": "Snake Baker",
"Link": "/michigan-dearborn-school-board-removes-some-gay-porn-books-after-moslems-protest/"
}