{
"Title": "California: Reparations Task Force Says $223,200 Owed to Every Black Slave Descendant",
"ThumbnailURI": "/wp-content/uploads/2022/12/black-gold-2.jpg",
"Description": "",
"Author": "Elvis Dunderhoff",
"Link": "/california-reparations-task-force-says-223200-owed-to-every-black-slave-descendant/"
}