{
"Title": "Credit Card Provider Discover to Track Gun Purchases from April",
"ThumbnailURI": "/wp-content/uploads/2023/02/stonetoss-gun-1-1.webp",
"Description": "",
"Author": "Elvis Dunderhoff",
"Link": "/credit-card-provider-discover-to-track-gun-purchases-from-april/"
}