{
"Title": "Former Navy Seal Who Went Tranny Says It Destroyed His Life, Denounces Transgenderism",
"ThumbnailURI": "/wp-content/uploads/2022/12/Screen-Shot-2022-12-13-at-3.51.41-AM.png",
"Description": "",
"Author": "Elvis Dunderhoff",
"Link": "/former-navy-seal-who-went-tranny-says-it-destroyed-his-life-denounces-transgenderism/"
}