{
"Title": "The Ukraine to Lose War Soon Unless West Sends More Stuff Fast, EU Foreign Affairs Chief Says",
"ThumbnailURI": "/wp-content/uploads/2023/02/zelensky-458-1.jpg",
"Description": "",
"Author": "Elvis Dunderhoff",
"Link": "/ukraine-to-lose-war-soon-unless-west-sends-more-stuff-fast-eu-foreign-affairs-chief-says/"
}