{
"Title": "Jew Breitbart has had Nick Fuentes Article at the Top of the Page for Two Days",
"ThumbnailURI": "/wp-content/uploads/2017/02/TrollFaceForm2.png",
"Description": "",
"Author": "Andrew Anglin",
"Link": "/jew-breitbart-has-had-nick-fuentes-article-at-the-top-of-the-page-for-two-days/"
}