{
"Title": "Lex Fridman Says Questioning the Jews is Very Dark",
"ThumbnailURI": "/wp-content/uploads/2023/01/Screenshot-2023-01-26-at-5.07.26-PM.png",
"Description": "",
"Author": "Andrew Anglin",
"Link": "/lex-fridman-says-questioning-the-jews-is-very-dark/"
}