{
"Title": "Muchos Hombre El Beano, Mundo Grande El Rapo Del Americanski Bordero",
"ThumbnailURI": "/wp-content/uploads/2023/02/orc-10.webp",
"Description": "",
"Author": "Andrew Anglin",
"Link": "/muchos-hombre-el-beano-mundo-grande-el-rapo-del-americanski-bordero/"
}