{
"Title": "Trade Between Russia and China Continues to Grow, Partnership Seeing “Strong Momentum”",
"ThumbnailURI": "/wp-content/uploads/2022/12/russia-china-bears-1.jpeg",
"Description": "",
"Author": "Elvis Dunderhoff",
"Link": "/trade-between-russia-and-china-continues-to-grow-partnership-seeing-strong-momentum/"
}