{
"Title": "Evil Jews Threatening to Take Ye’s Kids",
"ThumbnailURI": "/wp-content/uploads/2022/11/Screen-Shot-2022-11-01-at-3.47.02-PM.png",
"Description": "",
"Author": "Andrew Anglin",
"Link": "/evil-jews-threatening-to-take-yes-kids/"
}