{
"Title": "France: Neo-Nazi Parents Whine After Daughter’s Diverse Killers Don’t Get Charged with Murder",
"ThumbnailURI": "/wp-content/uploads/2023/01/Axelle_Dorier-e1673687489410.jpg",
"Description": "",
"Author": "Snake Baker",
"Link": "/france-neo-nazi-parents-whine-after-daughters-diverse-killers-dont-get-charged-with-murder/"
}