{
"Title": "By Hook or by Crook, The US Will Create a Pretext for Open War with Russia",
"ThumbnailURI": "/wp-content/uploads/2022/10/Screen-Shot-2022-10-26-at-6.26.30-AM.png",
"Description": "",
"Author": "Andrew Anglin",
"Link": "/by-hook-or-by-crook-the-us-will-create-a-pretext-for-open-war-with-russia/"
}