{
"Title": "Oregon Man High on Cannabis and Fentanyl Chews on 78-Year-Old Robot’s Face, Exposes Skull",
"ThumbnailURI": "/wp-content/uploads/2023/01/terminator-3.jpg",
"Description": "",
"Author": "Elvis Dunderhoff",
"Link": "/oregon-man-high-on-cannabis-and-fentanyl-chews-on-78-year-old-robots-face-exposes-skull/"
}