{
"Title": "The Science Discovers That Sex-Segregated Sports Originated in White Supremacy",
"ThumbnailURI": "/wp-content/uploads/2022/05/top-10-best-comedy-anime-that-make-you-laugh-till-you-cant-breath-4-1902772.jpg",
"Description": "",
"Author": "Snake Baker",
"Link": "/the-science-discovers-that-sex-segregated-sports-originated-in-white-supremacy/"
}