{
"Title": "Gas Prices So High People Have to Think Very Hard About Where They’re Driving To",
"ThumbnailURI": "/wp-content/uploads/2022/12/meme-wojak-crisis-2.jpg",
"Description": "",
"Author": "Elvis Dunderhoff",
"Link": "/gas-prices-so-high-people-have-to-think-very-hard-about-where-theyre-driving-to/"
}