{
"Title": "RAND Think Tank Says Ukraine War No Longer Beneficial for Jewish “Double-Anal Agenda”",
"ThumbnailURI": "/wp-content/uploads/2023/01/skull-12.jpg",
"Description": "",
"Author": "Andrew Anglin",
"Link": "/rand-think-tank-says-ukraine-war-no-longer-beneficial-for-jewish-double-anal-agenda/"
}