{
"Title": "Poll: Ye Now has Only a 16 Point Lead Over Ron DeSantis",
"ThumbnailURI": "/wp-content/uploads/2022/12/Screen-Shot-2022-12-13-at-3.49.30-AM.png",
"Description": "",
"Author": "Andrew Anglin",
"Link": "/poll-ye-now-has-only-a-16-point-lead-over-ron-desantis/"
}