{
"Title": "UK: Another Christian Fined for Silently Praying Outside Baby-Killing Facility",
"ThumbnailURI": "/wp-content/uploads/2023/01/police-officers-illustration-id93134615-389548720-e1674381579862.jpg",
"Description": "",
"Author": "Snake Baker",
"Link": "/uk-another-christian-fined-for-silently-praying-outside-baby-killing-facility/"
}