{
"Title": "UK: Tranny Killer Who Identifies as Baby Gets Pacifiers, Diapers, Baby Food in Prison",
"ThumbnailURI": "/wp-content/uploads/2023/02/2c7c083f252866f9e94d04eabac16f4c-822242711-e1675335939966.jpg",
"Description": "",
"Author": "Snake Baker",
"Link": "/uk-tranny-killer-who-identifies-as-baby-gets-pacifiers-diapers-baby-food-in-prison/"
}