{
"Title": "America Tells the Ukraine to Stop Publicly Refusing Peace Talks with Russia (Bad Optics)",
"ThumbnailURI": "/wp-content/uploads/2022/11/meme-ukraine-propaganda-evil-1-1.jpg",
"Description": "",
"Author": "Elvis Dunderhoff",
"Link": "/america-tells-the-ukraine-to-stop-publicly-refusing-peace-talks-with-russia-bad-optics/"
}