{
"Title": "UK Considers Manufacturing Weapons in the Ukraine",
"ThumbnailURI": "/wp-content/uploads/2023/02/evil-wojak-2.webp",
"Description": "",
"Author": "Elvis Dunderhoff",
"Link": "/uk-considers-manufacturing-weapons-in-the-ukraine/"
}