{
"Title": "Japanese Politician Visits Taiwan to Help America Provoke WW3",
"ThumbnailURI": "/wp-content/uploads/2022/12/Screen-Shot-2022-12-29-at-7.05.19-AM.png",
"Description": "",
"Author": "Elvis Dunderhoff",
"Link": "/japanese-politician-visits-taiwan-to-help-america-provoke-ww3/"
}