{
"Title": "Apocalyptic War with Mexico Incoming?",
"ThumbnailURI": "/wp-content/uploads/2023/01/Screenshot-2023-01-07-at-9.41.35-AM.png",
"Description": "",
"Author": "Andrew Anglin",
"Link": "/apocalyptic-war-with-mexico-incoming/"
}