{
"Title": "Tennessee Passes Law to Ban Child Mutilation",
"ThumbnailURI": "/wp-content/uploads/2023/02/isnt-it-funny-a-fly-marrying-a-bubble-bee-3635911759-e1677230513938.jpg",
"Description": "",
"Author": "Snake Baker",
"Link": "/tennessee-passes-law-to-ban-child-mutilation/"
}