{
"Title": "“Uche, Where Art Thou?” – Unhinged Vaxer Psycho Ball-Chucker Dies Suddenly at 38 for Literally No Reason",
"ThumbnailURI": "/wp-content/uploads/2023/01/Screenshot-2023-01-03-at-7.26.23-AM.png",
"Description": "",
"Author": "Andrew Anglin",
"Link": "/uche-where-art-thou-unhinged-vaxer-psycho-ball-chucker-dies-suddenly-at-38-for-literally-no-reason/"
}