{
"Title": "Ye Sued by KRS-One Over Supposed Sample Dispute",
"ThumbnailURI": "/wp-content/uploads/2022/11/Screen-Shot-2022-11-08-at-3.26.03-AM.png",
"Description": "",
"Author": "Andrew Anglin",
"Link": "/ye-sued-by-krs-one-over-supposed-sample-dispute/"
}