{
"Title": "Canadian Province Decriminalizes Virtually All Hard Drugs",
"ThumbnailURI": "/wp-content/uploads/2023/02/3780139-4080791673-e1675334660292.jpg",
"Description": "",
"Author": "Snake Baker",
"Link": "/canadian-province-decriminalizes-virtually-all-hard-drugs/"
}