{
"Title": "UK: Brit Awards Rethinking “Gender Neutral” Award After All Nominees are Men",
"ThumbnailURI": "/wp-content/uploads/2023/01/61qjmxAzNJL-e1674643697962.jpg",
"Description": "",
"Author": "Snake Baker",
"Link": "/uk-brit-awards-rethinking-gender-neutral-award-after-all-nominees-are-men/"
}