{
"Title": "Trump Vows Beautification Program to Destroy All of These Ugly Buildings Everywhere and Bring Joyfulness",
"ThumbnailURI": "/wp-content/uploads/2023/03/trump-9.webp",
"Description": "",
"Author": "Andrew Anglin",
"Link": "/trump-vows-beautification-program-to-destroy-all-of-these-ugly-buildings-everywhere-and-bring-joyfulness/"
}